﻿CAT1,Beer-Emard,JMeterUser1,Axtest,ysangalang+JMeterUser1@gmail.com
CAT2,Schamberger Inc,JMeterUser2,Axtest,ysangalang+JMeterUser2@gmail.com
CAT3,"Swift, Grimes and Larkin",JMeterUser3,Axtest,ysangalang+JMeterUser3@gmail.com
CAT4,Boehm Inc,JMeterUser4,Axtest,ysangalang+JMeterUser4@gmail.com
CAT5,D'Amore LLC,JMeterUser5,Axtest,ysangalang+JMeterUser5@gmail.com
CAT6,"Fahey, Stanton and Wuckert",JMeterUser6,Axtest,ysangalang+JMeterUser6@gmail.com
CAT7,Heathcote Inc,JMeterUser7,Axtest,ysangalang+JMeterUser7@gmail.com
CAT8,"Rippin, Satterfield and Weber",JMeterUser8,Axtest,ysangalang+JMeterUser8@gmail.com
CAT9,Dietrich Group,JMeterUser9,Axtest,ysangalang+JMeterUser9@gmail.com
CAT10,McGlynn-Harber,JMeterUser10,Axtest,ysangalang+JMeterUser10@gmail.com
CAT11,Strosin Group,JMeterUser11,Axtest,ysangalang+JMeterUser11@gmail.com
CAT12,Strosin-Wilderman,JMeterUser12,Axtest,ysangalang+JMeterUser12@gmail.com
CAT13,Hahn and Sons,JMeterUser13,Axtest,ysangalang+JMeterUser13@gmail.com
CAT14,Gutkowski-Bergnaum,JMeterUser14,Axtest,ysangalang+JMeterUser14@gmail.com
CAT15,Runte-Sauer,JMeterUser15,Axtest,ysangalang+JMeterUser15@gmail.com
CAT16,Schulist-Sawayn,JMeterUser16,Axtest,ysangalang+JMeterUser16@gmail.com
CAT17,Kihn-Herman,JMeterUser17,Axtest,ysangalang+JMeterUser17@gmail.com
CAT18,Beer LLC,JMeterUser18,Axtest,ysangalang+JMeterUser18@gmail.com
CAT19,Schuster Group,JMeterUser19,Axtest,ysangalang+JMeterUser19@gmail.com
CAT20,Rice Group,JMeterUser20,Axtest,ysangalang+JMeterUser20@gmail.com
CAT21,Upton-Mueller,JMeterUser21,Axtest,ysangalang+JMeterUser21@gmail.com
CAT22,Senger LLC,JMeterUser22,Axtest,ysangalang+JMeterUser22@gmail.com
CAT23,Nader-Haley,JMeterUser23,Axtest,ysangalang+JMeterUser23@gmail.com
CAT24,Larson Inc,JMeterUser24,Axtest,ysangalang+JMeterUser24@gmail.com
CAT25,Friesen Group,JMeterUser25,Axtest,ysangalang+JMeterUser25@gmail.com
CAT26,Turner-Baumbach,JMeterUser26,Axtest,ysangalang+JMeterUser26@gmail.com
CAT27,Sanford-Mueller,JMeterUser27,Axtest,ysangalang+JMeterUser27@gmail.com
CAT28,Marvin Group,JMeterUser28,Axtest,ysangalang+JMeterUser28@gmail.com
CAT29,Little-Adams,JMeterUser29,Axtest,ysangalang+JMeterUser29@gmail.com
CAT30,Baumbach Group,JMeterUser30,Axtest,ysangalang+JMeterUser30@gmail.com
CAT31,"Swift, Russel and Hilpert",JMeterUser31,Axtest,ysangalang+JMeterUser31@gmail.com
CAT32,Lesch and Sons,JMeterUser32,Axtest,ysangalang+JMeterUser32@gmail.com
CAT33,Crooks-Schamberger,JMeterUser33,Axtest,ysangalang+JMeterUser33@gmail.com
CAT34,Mills-Jast,JMeterUser34,Axtest,ysangalang+JMeterUser34@gmail.com
CAT35,"Botsford, Mohr and McClure",JMeterUser35,Axtest,ysangalang+JMeterUser35@gmail.com
CAT36,Beer-Romaguera,JMeterUser36,Axtest,ysangalang+JMeterUser36@gmail.com
CAT37,Stark-Casper,JMeterUser37,Axtest,ysangalang+JMeterUser37@gmail.com
CAT38,Koepp Group,JMeterUser38,Axtest,ysangalang+JMeterUser38@gmail.com
CAT39,Jaskolski-Erdman,JMeterUser39,Axtest,ysangalang+JMeterUser39@gmail.com
CAT40,Leffler LLC,JMeterUser40,Axtest,ysangalang+JMeterUser40@gmail.com
CAT41,"Schuster, Rodriguez and Bradtke",JMeterUser41,Axtest,ysangalang+JMeterUser41@gmail.com
CAT42,Wolf Group,JMeterUser42,Axtest,ysangalang+JMeterUser42@gmail.com
CAT43,Stamm-Pouros,JMeterUser43,Axtest,ysangalang+JMeterUser43@gmail.com
CAT44,Carroll-Hoppe,JMeterUser44,Axtest,ysangalang+JMeterUser44@gmail.com
CAT45,"Stark, Blick and Gleichner",JMeterUser45,Axtest,ysangalang+JMeterUser45@gmail.com
CAT46,Kautzer-Marquardt,JMeterUser46,Axtest,ysangalang+JMeterUser46@gmail.com
CAT47,"Sauer, Bahringer and Stark",JMeterUser47,Axtest,ysangalang+JMeterUser47@gmail.com
CAT48,"Gottlieb, Parker and Schulist",JMeterUser48,Axtest,ysangalang+JMeterUser48@gmail.com
CAT49,"Bruen, Huels and McClure",JMeterUser49,Axtest,ysangalang+JMeterUser49@gmail.com
CAT50,"O'Keefe, Kuhn and Zboncak",JMeterUser50,Axtest,ysangalang+JMeterUser50@gmail.com
CAT51,Feest Group,JMeterUser51,Axtest,ysangalang+JMeterUser51@gmail.com
CAT52,"Haag, Lueilwitz and Kuvalis",JMeterUser52,Axtest,ysangalang+JMeterUser52@gmail.com
CAT53,"Wuckert, Leffler and Mann",JMeterUser53,Axtest,ysangalang+JMeterUser53@gmail.com
CAT54,Volkman-Pollich,JMeterUser54,Axtest,ysangalang+JMeterUser54@gmail.com
CAT55,"Stehr, Towne and Hoeger",JMeterUser55,Axtest,ysangalang+JMeterUser55@gmail.com
CAT56,Rice Inc,JMeterUser56,Axtest,ysangalang+JMeterUser56@gmail.com
CAT57,Orn Inc,JMeterUser57,Axtest,ysangalang+JMeterUser57@gmail.com
CAT58,Graham Group,JMeterUser58,Axtest,ysangalang+JMeterUser58@gmail.com
CAT59,Jerde Inc,JMeterUser59,Axtest,ysangalang+JMeterUser59@gmail.com
CAT60,Harris and Sons,JMeterUser60,Axtest,ysangalang+JMeterUser60@gmail.com
CAT61,Gaylord-Block,JMeterUser61,Axtest,ysangalang+JMeterUser61@gmail.com
CAT62,"Prohaska, Marquardt and Langworth",JMeterUser62,Axtest,ysangalang+JMeterUser62@gmail.com
CAT63,Fahey-Runolfsdottir,JMeterUser63,Axtest,ysangalang+JMeterUser63@gmail.com
CAT64,Bode and Sons,JMeterUser64,Axtest,ysangalang+JMeterUser64@gmail.com
CAT65,Cassin and Sons,JMeterUser65,Axtest,ysangalang+JMeterUser65@gmail.com
CAT66,"Rath, Bauch and West",JMeterUser66,Axtest,ysangalang+JMeterUser66@gmail.com
CAT67,Parker-Lubowitz,JMeterUser67,Axtest,ysangalang+JMeterUser67@gmail.com
CAT68,Boyer-Tillman,JMeterUser68,Axtest,ysangalang+JMeterUser68@gmail.com
CAT69,Gaylord LLC,JMeterUser69,Axtest,ysangalang+JMeterUser69@gmail.com
CAT70,"Jaskolski, Brekke and Beatty",JMeterUser70,Axtest,ysangalang+JMeterUser70@gmail.com
CAT71,Goodwin-Blick,JMeterUser71,Axtest,ysangalang+JMeterUser71@gmail.com
CAT72,"Fritsch, Barrows and Watsica",JMeterUser72,Axtest,ysangalang+JMeterUser72@gmail.com
CAT73,Senger-Dare,JMeterUser73,Axtest,ysangalang+JMeterUser73@gmail.com
CAT74,Koepp Inc,JMeterUser74,Axtest,ysangalang+JMeterUser74@gmail.com
CAT75,Kub-Cummings,JMeterUser75,Axtest,ysangalang+JMeterUser75@gmail.com
CAT76,"Romaguera, West and Koss",JMeterUser76,Axtest,ysangalang+JMeterUser76@gmail.com
CAT77,Stehr-Shanahan,JMeterUser77,Axtest,ysangalang+JMeterUser77@gmail.com
CAT78,Sauer Group,JMeterUser78,Axtest,ysangalang+JMeterUser78@gmail.com
CAT79,Mertz-Hilll,JMeterUser79,Axtest,ysangalang+JMeterUser79@gmail.com
CAT80,"Herman, Carroll and Toy",JMeterUser80,Axtest,ysangalang+JMeterUser80@gmail.com
CAT81,"Miller, Feil and Boyer",JMeterUser81,Axtest,ysangalang+JMeterUser81@gmail.com
CAT82,Harvey LLC,JMeterUser82,Axtest,ysangalang+JMeterUser82@gmail.com
CAT83,"Krajcik, Rosenbaum and Schowalter",JMeterUser83,Axtest,ysangalang+JMeterUser83@gmail.com
CAT84,Turner and Sons,JMeterUser84,Axtest,ysangalang+JMeterUser84@gmail.com
CAT85,Hoeger-Gerhold,JMeterUser85,Axtest,ysangalang+JMeterUser85@gmail.com
CAT86,"Hoppe, Lind and Nikolaus",JMeterUser86,Axtest,ysangalang+JMeterUser86@gmail.com
CAT87,"Auer, Yundt and McClure",JMeterUser87,Axtest,ysangalang+JMeterUser87@gmail.com
CAT88,"Doyle, Buckridge and Fadel",JMeterUser88,Axtest,ysangalang+JMeterUser88@gmail.com
CAT89,"Kshlerin, Hoppe and Kihn",JMeterUser89,Axtest,ysangalang+JMeterUser89@gmail.com
CAT90,Leffler-Sanford,JMeterUser90,Axtest,ysangalang+JMeterUser90@gmail.com
CAT91,Douglas Inc,JMeterUser91,Axtest,ysangalang+JMeterUser91@gmail.com
CAT92,Hilpert-Huel,JMeterUser92,Axtest,ysangalang+JMeterUser92@gmail.com
CAT93,"Thompson, Torphy and Stamm",JMeterUser93,Axtest,ysangalang+JMeterUser93@gmail.com
CAT94,"Dooley, Torp and Ortiz",JMeterUser94,Axtest,ysangalang+JMeterUser94@gmail.com
CAT95,Conroy-Runolfsdottir,JMeterUser95,Axtest,ysangalang+JMeterUser95@gmail.com
CAT96,"O'Hara, Moen and Bartell",JMeterUser96,Axtest,ysangalang+JMeterUser96@gmail.com
CAT97,Funk-Rau,JMeterUser97,Axtest,ysangalang+JMeterUser97@gmail.com
CAT98,Nader Group,JMeterUser98,Axtest,ysangalang+JMeterUser98@gmail.com
CAT99,"Kunze, Casper and Stroman",JMeterUser99,Axtest,ysangalang+JMeterUser99@gmail.com
CAT100,O'Keefe-Smitham,JMeterUser100,Axtest,ysangalang+JMeterUser100@gmail.com
CAT101,"Leffler, Schulist and Hilpert",JMeterUser101,Axtest,ysangalang+JMeterUser101@gmail.com
CAT102,"Homenick, Abbott and Muller",JMeterUser102,Axtest,ysangalang+JMeterUser102@gmail.com
CAT103,"Hills, O'Connell and O'Conner",JMeterUser103,Axtest,ysangalang+JMeterUser103@gmail.com
CAT104,Lang-Grimes,JMeterUser104,Axtest,ysangalang+JMeterUser104@gmail.com
CAT105,"Blanda, Hintz and Jacobson",JMeterUser105,Axtest,ysangalang+JMeterUser105@gmail.com
CAT106,"Willms, Marquardt and Lemke",JMeterUser106,Axtest,ysangalang+JMeterUser106@gmail.com
CAT107,"Bartell, Kirlin and Zieme",JMeterUser107,Axtest,ysangalang+JMeterUser107@gmail.com
CAT108,Huel and Sons,JMeterUser108,Axtest,ysangalang+JMeterUser108@gmail.com
CAT109,D'Amore Inc,JMeterUser109,Axtest,ysangalang+JMeterUser109@gmail.com
CAT110,"Leuschke, Becker and Schaefer",JMeterUser110,Axtest,ysangalang+JMeterUser110@gmail.com
CAT111,"Stehr, Willms and Bosco",JMeterUser111,Axtest,ysangalang+JMeterUser111@gmail.com
CAT112,"Monahan, Greenholt and Hudson",JMeterUser112,Axtest,ysangalang+JMeterUser112@gmail.com
CAT113,"Kassulke, Barton and Leffler",JMeterUser113,Axtest,ysangalang+JMeterUser113@gmail.com
CAT114,"Wehner, Fadel and Hessel",JMeterUser114,Axtest,ysangalang+JMeterUser114@gmail.com
CAT115,Kirlin LLC,JMeterUser115,Axtest,ysangalang+JMeterUser115@gmail.com
CAT116,"Konopelski, Zulauf and Hauck",JMeterUser116,Axtest,ysangalang+JMeterUser116@gmail.com
CAT117,Reinger Inc,JMeterUser117,Axtest,ysangalang+JMeterUser117@gmail.com
CAT118,Lang and Sons,JMeterUser118,Axtest,ysangalang+JMeterUser118@gmail.com
CAT119,Little Group,JMeterUser119,Axtest,ysangalang+JMeterUser119@gmail.com
CAT120,Lakin-Heaney,JMeterUser120,Axtest,ysangalang+JMeterUser120@gmail.com
CAT121,"Kohler, Goodwin and O'Keefe",JMeterUser121,Axtest,ysangalang+JMeterUser121@gmail.com
CAT122,Bosco-Gulgowski,JMeterUser122,Axtest,ysangalang+JMeterUser122@gmail.com
CAT123,Braun LLC,JMeterUser123,Axtest,ysangalang+JMeterUser123@gmail.com
CAT124,"Gleason, Mraz and Schuppe",JMeterUser124,Axtest,ysangalang+JMeterUser124@gmail.com
CAT125,Cole-Rolfson,JMeterUser125,Axtest,ysangalang+JMeterUser125@gmail.com
CAT126,Cummings-Parker,JMeterUser126,Axtest,ysangalang+JMeterUser126@gmail.com
CAT127,"Bayer, McKenzie and Gerhold",JMeterUser127,Axtest,ysangalang+JMeterUser127@gmail.com
CAT128,"Simonis, Schaden and Kling",JMeterUser128,Axtest,ysangalang+JMeterUser128@gmail.com
CAT129,Stokes-Wilkinson,JMeterUser129,Axtest,ysangalang+JMeterUser129@gmail.com
CAT130,Thiel-Fisher,JMeterUser130,Axtest,ysangalang+JMeterUser130@gmail.com
CAT131,Littel Inc,JMeterUser131,Axtest,ysangalang+JMeterUser131@gmail.com
CAT132,Rowe-Luettgen,JMeterUser132,Axtest,ysangalang+JMeterUser132@gmail.com
CAT133,Marvin-Collier,JMeterUser133,Axtest,ysangalang+JMeterUser133@gmail.com
CAT134,"Koss, Stamm and Christiansen",JMeterUser134,Axtest,ysangalang+JMeterUser134@gmail.com
CAT135,Johnston Group,JMeterUser135,Axtest,ysangalang+JMeterUser135@gmail.com
CAT136,"Quitzon, Harber and Bashirian",JMeterUser136,Axtest,ysangalang+JMeterUser136@gmail.com
CAT137,Block-Becker,JMeterUser137,Axtest,ysangalang+JMeterUser137@gmail.com
CAT138,Funk-Hintz,JMeterUser138,Axtest,ysangalang+JMeterUser138@gmail.com
CAT139,"Roberts, DuBuque and Keeling",JMeterUser139,Axtest,ysangalang+JMeterUser139@gmail.com
CAT140,Bogan and Sons,JMeterUser140,Axtest,ysangalang+JMeterUser140@gmail.com
CAT141,Dickinson-Okuneva,JMeterUser141,Axtest,ysangalang+JMeterUser141@gmail.com
CAT142,"Cole, Rodriguez and Herman",JMeterUser142,Axtest,ysangalang+JMeterUser142@gmail.com
CAT143,Deckow-Lowe,JMeterUser143,Axtest,ysangalang+JMeterUser143@gmail.com
CAT144,"Corwin, Schumm and Bahringer",JMeterUser144,Axtest,ysangalang+JMeterUser144@gmail.com
CAT145,Corwin-Cremin,JMeterUser145,Axtest,ysangalang+JMeterUser145@gmail.com
CAT146,Littel-Durgan,JMeterUser146,Axtest,ysangalang+JMeterUser146@gmail.com
CAT147,Miller-Ledner,JMeterUser147,Axtest,ysangalang+JMeterUser147@gmail.com
CAT148,"Wehner, Wunsch and Stoltenberg",JMeterUser148,Axtest,ysangalang+JMeterUser148@gmail.com
CAT149,"Kassulke, Ullrich and Johns",JMeterUser149,Axtest,ysangalang+JMeterUser149@gmail.com
CAT150,Predovic-Cummings,JMeterUser150,Axtest,ysangalang+JMeterUser150@gmail.com
CAT151,Brown-Deckow,JMeterUser151,Axtest,ysangalang+JMeterUser151@gmail.com
CAT152,Dickinson LLC,JMeterUser152,Axtest,ysangalang+JMeterUser152@gmail.com
CAT153,Hickle-Kuvalis,JMeterUser153,Axtest,ysangalang+JMeterUser153@gmail.com
CAT154,"Parker, Stracke and Willms",JMeterUser154,Axtest,ysangalang+JMeterUser154@gmail.com
CAT155,Runte LLC,JMeterUser155,Axtest,ysangalang+JMeterUser155@gmail.com
CAT156,Jones-Heller,JMeterUser156,Axtest,ysangalang+JMeterUser156@gmail.com
CAT157,"Crona, Kunze and Marvin",JMeterUser157,Axtest,ysangalang+JMeterUser157@gmail.com
CAT158,Baumbach LLC,JMeterUser158,Axtest,ysangalang+JMeterUser158@gmail.com
CAT159,Huels LLC,JMeterUser159,Axtest,ysangalang+JMeterUser159@gmail.com
CAT160,Will-Kunze,JMeterUser160,Axtest,ysangalang+JMeterUser160@gmail.com
CAT161,"Orn, Littel and Balistreri",JMeterUser161,Axtest,ysangalang+JMeterUser161@gmail.com
CAT162,"Murphy, Jenkins and Borer",JMeterUser162,Axtest,ysangalang+JMeterUser162@gmail.com
CAT163,Cole-Klein,JMeterUser163,Axtest,ysangalang+JMeterUser163@gmail.com
CAT164,Swift LLC,JMeterUser164,Axtest,ysangalang+JMeterUser164@gmail.com
CAT165,"Langosh, Bosco and Brown",JMeterUser165,Axtest,ysangalang+JMeterUser165@gmail.com
CAT166,Dicki Group,JMeterUser166,Axtest,ysangalang+JMeterUser166@gmail.com
CAT167,Kub and Sons,JMeterUser167,Axtest,ysangalang+JMeterUser167@gmail.com
CAT168,"Dooley, Weissnat and Abernathy",JMeterUser168,Axtest,ysangalang+JMeterUser168@gmail.com
CAT169,"Ondricka, Murazik and Brakus",JMeterUser169,Axtest,ysangalang+JMeterUser169@gmail.com
CAT170,McCullough Group,JMeterUser170,Axtest,ysangalang+JMeterUser170@gmail.com
CAT171,Johnson Group,JMeterUser171,Axtest,ysangalang+JMeterUser171@gmail.com
CAT172,"Steuber, Padberg and Windler",JMeterUser172,Axtest,ysangalang+JMeterUser172@gmail.com
CAT173,Funk-Hoppe,JMeterUser173,Axtest,ysangalang+JMeterUser173@gmail.com
CAT174,Effertz Inc,JMeterUser174,Axtest,ysangalang+JMeterUser174@gmail.com
CAT175,Nolan-Kutch,JMeterUser175,Axtest,ysangalang+JMeterUser175@gmail.com
CAT176,"Donnelly, Hagenes and Medhurst",JMeterUser176,Axtest,ysangalang+JMeterUser176@gmail.com
CAT177,Hermann LLC,JMeterUser177,Axtest,ysangalang+JMeterUser177@gmail.com
CAT178,Weimann-Wilkinson,JMeterUser178,Axtest,ysangalang+JMeterUser178@gmail.com
CAT179,"Jast, Hegmann and Grant",JMeterUser179,Axtest,ysangalang+JMeterUser179@gmail.com
CAT180,Haley-Koelpin,JMeterUser180,Axtest,ysangalang+JMeterUser180@gmail.com
CAT181,"Abbott, Boyer and Boehm",JMeterUser181,Axtest,ysangalang+JMeterUser181@gmail.com
CAT182,"Koepp, Kunze and DuBuque",JMeterUser182,Axtest,ysangalang+JMeterUser182@gmail.com
CAT183,Klocko LLC,JMeterUser183,Axtest,ysangalang+JMeterUser183@gmail.com
CAT184,"Schimmel, Nienow and Tillman",JMeterUser184,Axtest,ysangalang+JMeterUser184@gmail.com
CAT185,"Lowe, Rutherford and Grimes",JMeterUser185,Axtest,ysangalang+JMeterUser185@gmail.com
CAT186,"Halvorson, Wuckert and Harvey",JMeterUser186,Axtest,ysangalang+JMeterUser186@gmail.com
CAT187,"Spencer, Hilpert and Crooks",JMeterUser187,Axtest,ysangalang+JMeterUser187@gmail.com
CAT188,Sauer-Borer,JMeterUser188,Axtest,ysangalang+JMeterUser188@gmail.com
CAT189,"Cole, Kulas and Parker",JMeterUser189,Axtest,ysangalang+JMeterUser189@gmail.com
CAT190,"Kuhn, Wolf and Stroman",JMeterUser190,Axtest,ysangalang+JMeterUser190@gmail.com
CAT191,"Kub, Crooks and Keeling",JMeterUser191,Axtest,ysangalang+JMeterUser191@gmail.com
CAT192,"Bauch, Rath and Grimes",JMeterUser192,Axtest,ysangalang+JMeterUser192@gmail.com
CAT193,"Jacobson, Steuber and Nolan",JMeterUser193,Axtest,ysangalang+JMeterUser193@gmail.com
CAT194,"Rau, Bogisich and Cartwright",JMeterUser194,Axtest,ysangalang+JMeterUser194@gmail.com
CAT195,"Lebsack, Bruen and Rippin",JMeterUser195,Axtest,ysangalang+JMeterUser195@gmail.com
CAT196,Harvey-Stiedemann,JMeterUser196,Axtest,ysangalang+JMeterUser196@gmail.com
CAT197,Mayer-Waelchi,JMeterUser197,Axtest,ysangalang+JMeterUser197@gmail.com
CAT198,Rau-Rau,JMeterUser198,Axtest,ysangalang+JMeterUser198@gmail.com
CAT199,Yundt Inc,JMeterUser199,Axtest,ysangalang+JMeterUser199@gmail.com
CAT200,Monahan Inc,JMeterUser200,Axtest,ysangalang+JMeterUser200@gmail.com
CAT201,Wolf Group,JMeterUser201,Axtest,ysangalang+JMeterUser201@gmail.com
CAT202,King LLC,JMeterUser202,Axtest,ysangalang+JMeterUser202@gmail.com
CAT203,Miller and Sons,JMeterUser203,Axtest,ysangalang+JMeterUser203@gmail.com
CAT204,Windler and Sons,JMeterUser204,Axtest,ysangalang+JMeterUser204@gmail.com
CAT205,Fay Inc,JMeterUser205,Axtest,ysangalang+JMeterUser205@gmail.com
CAT206,Doyle-Klein,JMeterUser206,Axtest,ysangalang+JMeterUser206@gmail.com
CAT207,Douglas Inc,JMeterUser207,Axtest,ysangalang+JMeterUser207@gmail.com
CAT208,"Fisher, Rau and Schowalter",JMeterUser208,Axtest,ysangalang+JMeterUser208@gmail.com
CAT209,Brown-Stroman,JMeterUser209,Axtest,ysangalang+JMeterUser209@gmail.com
CAT210,Leannon-Dibbert,JMeterUser210,Axtest,ysangalang+JMeterUser210@gmail.com
CAT211,Becker Group,JMeterUser211,Axtest,ysangalang+JMeterUser211@gmail.com
CAT212,Bahringer-Steuber,JMeterUser212,Axtest,ysangalang+JMeterUser212@gmail.com
CAT213,Dickinson and Sons,JMeterUser213,Axtest,ysangalang+JMeterUser213@gmail.com
CAT214,"Bode, Zulauf and Swift",JMeterUser214,Axtest,ysangalang+JMeterUser214@gmail.com
CAT215,Hoeger-Tillman,JMeterUser215,Axtest,ysangalang+JMeterUser215@gmail.com
CAT216,Cruickshank-Gleason,JMeterUser216,Axtest,ysangalang+JMeterUser216@gmail.com
CAT217,Swaniawski and Sons,JMeterUser217,Axtest,ysangalang+JMeterUser217@gmail.com
CAT218,Gottlieb-Christiansen,JMeterUser218,Axtest,ysangalang+JMeterUser218@gmail.com
CAT219,"Hoeger, Gottlieb and Reichert",JMeterUser219,Axtest,ysangalang+JMeterUser219@gmail.com
CAT220,"Kuhic, Kilback and Bogisich",JMeterUser220,Axtest,ysangalang+JMeterUser220@gmail.com
CAT221,Blick-Weber,JMeterUser221,Axtest,ysangalang+JMeterUser221@gmail.com
CAT222,Corwin-Bins,JMeterUser222,Axtest,ysangalang+JMeterUser222@gmail.com
CAT223,Walsh Inc,JMeterUser223,Axtest,ysangalang+JMeterUser223@gmail.com
CAT224,"Kulas, Wisozk and Fadel",JMeterUser224,Axtest,ysangalang+JMeterUser224@gmail.com
CAT225,Swaniawski-Farrell,JMeterUser225,Axtest,ysangalang+JMeterUser225@gmail.com
CAT226,Ebert-Williamson,JMeterUser226,Axtest,ysangalang+JMeterUser226@gmail.com
CAT227,"Rohan, Gusikowski and Wunsch",JMeterUser227,Axtest,ysangalang+JMeterUser227@gmail.com
CAT228,Cruickshank Group,JMeterUser228,Axtest,ysangalang+JMeterUser228@gmail.com
CAT229,Corwin Inc,JMeterUser229,Axtest,ysangalang+JMeterUser229@gmail.com
CAT230,Mertz-Mayert,JMeterUser230,Axtest,ysangalang+JMeterUser230@gmail.com
CAT231,"Gottlieb, West and Rodriguez",JMeterUser231,Axtest,ysangalang+JMeterUser231@gmail.com
CAT232,Stehr-Stracke,JMeterUser232,Axtest,ysangalang+JMeterUser232@gmail.com
CAT233,Rath LLC,JMeterUser233,Axtest,ysangalang+JMeterUser233@gmail.com
CAT234,Bechtelar-Stoltenberg,JMeterUser234,Axtest,ysangalang+JMeterUser234@gmail.com
CAT235,Hyatt Inc,JMeterUser235,Axtest,ysangalang+JMeterUser235@gmail.com
CAT236,"Hauck, Carter and Beer",JMeterUser236,Axtest,ysangalang+JMeterUser236@gmail.com
CAT237,"Windler, Marvin and Runolfsson",JMeterUser237,Axtest,ysangalang+JMeterUser237@gmail.com
CAT238,Collins-McGlynn,JMeterUser238,Axtest,ysangalang+JMeterUser238@gmail.com
CAT239,"Larkin, Jerde and Kertzmann",JMeterUser239,Axtest,ysangalang+JMeterUser239@gmail.com
CAT240,"Koss, Stiedemann and O'Reilly",JMeterUser240,Axtest,ysangalang+JMeterUser240@gmail.com
CAT241,Wunsch-Rosenbaum,JMeterUser241,Axtest,ysangalang+JMeterUser241@gmail.com
CAT242,Kub LLC,JMeterUser242,Axtest,ysangalang+JMeterUser242@gmail.com
CAT243,"Rohan, Kozey and Herzog",JMeterUser243,Axtest,ysangalang+JMeterUser243@gmail.com
CAT244,Metz Group,JMeterUser244,Axtest,ysangalang+JMeterUser244@gmail.com
CAT245,Brown LLC,JMeterUser245,Axtest,ysangalang+JMeterUser245@gmail.com
CAT246,Beer and Sons,JMeterUser246,Axtest,ysangalang+JMeterUser246@gmail.com
CAT247,Will-Witting,JMeterUser247,Axtest,ysangalang+JMeterUser247@gmail.com
CAT248,"Barton, Hoppe and Kihn",JMeterUser248,Axtest,ysangalang+JMeterUser248@gmail.com
CAT249,"McClure, Schulist and Huels",JMeterUser249,Axtest,ysangalang+JMeterUser249@gmail.com
CAT250,"Schmeler, Kuvalis and Friesen",JMeterUser250,Axtest,ysangalang+JMeterUser250@gmail.com
CAT251,"Skiles, Stoltenberg and Mayer",JMeterUser251,Axtest,ysangalang+JMeterUser251@gmail.com
CAT252,Denesik-Jenkins,JMeterUser252,Axtest,ysangalang+JMeterUser252@gmail.com
CAT253,Daugherty-Feil,JMeterUser253,Axtest,ysangalang+JMeterUser253@gmail.com
CAT254,McDermott-Shanahan,JMeterUser254,Axtest,ysangalang+JMeterUser254@gmail.com
CAT255,Harris-Gibson,JMeterUser255,Axtest,ysangalang+JMeterUser255@gmail.com
CAT256,"Kuhic, Hirthe and Strosin",JMeterUser256,Axtest,ysangalang+JMeterUser256@gmail.com
CAT257,Hyatt and Sons,JMeterUser257,Axtest,ysangalang+JMeterUser257@gmail.com
CAT258,Hackett-Keeling,JMeterUser258,Axtest,ysangalang+JMeterUser258@gmail.com
CAT259,Ritchie and Sons,JMeterUser259,Axtest,ysangalang+JMeterUser259@gmail.com
CAT260,Kozey-Renner,JMeterUser260,Axtest,ysangalang+JMeterUser260@gmail.com
CAT261,Hamill-Dare,JMeterUser261,Axtest,ysangalang+JMeterUser261@gmail.com
CAT262,Koss-Prohaska,JMeterUser262,Axtest,ysangalang+JMeterUser262@gmail.com
CAT263,Emard LLC,JMeterUser263,Axtest,ysangalang+JMeterUser263@gmail.com
CAT264,"Brakus, O'Conner and Frami",JMeterUser264,Axtest,ysangalang+JMeterUser264@gmail.com
CAT265,Bosco-Sawayn,JMeterUser265,Axtest,ysangalang+JMeterUser265@gmail.com
CAT266,Ebert-Shields,JMeterUser266,Axtest,ysangalang+JMeterUser266@gmail.com
CAT267,Hermiston-Stanton,JMeterUser267,Axtest,ysangalang+JMeterUser267@gmail.com
CAT268,"Mosciski, Ledner and Schroeder",JMeterUser268,Axtest,ysangalang+JMeterUser268@gmail.com
CAT269,Bauch-Wisozk,JMeterUser269,Axtest,ysangalang+JMeterUser269@gmail.com
CAT270,"Durgan, Towne and Romaguera",JMeterUser270,Axtest,ysangalang+JMeterUser270@gmail.com
CAT271,"Bashirian, Orn and Bergnaum",JMeterUser271,Axtest,ysangalang+JMeterUser271@gmail.com
CAT272,"Sawayn, Crooks and Walker",JMeterUser272,Axtest,ysangalang+JMeterUser272@gmail.com
CAT273,Stoltenberg LLC,JMeterUser273,Axtest,ysangalang+JMeterUser273@gmail.com
CAT274,Collier-DuBuque,JMeterUser274,Axtest,ysangalang+JMeterUser274@gmail.com
CAT275,Russel Group,JMeterUser275,Axtest,ysangalang+JMeterUser275@gmail.com
CAT276,"Corwin, Haag and Kuhn",JMeterUser276,Axtest,ysangalang+JMeterUser276@gmail.com
CAT277,Parker-Gutmann,JMeterUser277,Axtest,ysangalang+JMeterUser277@gmail.com
CAT278,"Gleichner, Ortiz and Hermiston",JMeterUser278,Axtest,ysangalang+JMeterUser278@gmail.com
CAT279,Hessel Group,JMeterUser279,Axtest,ysangalang+JMeterUser279@gmail.com
CAT280,Bailey-Kreiger,JMeterUser280,Axtest,ysangalang+JMeterUser280@gmail.com
CAT281,Hessel-Schmidt,JMeterUser281,Axtest,ysangalang+JMeterUser281@gmail.com
CAT282,Parker Inc,JMeterUser282,Axtest,ysangalang+JMeterUser282@gmail.com
CAT283,"Rodriguez, Lubowitz and Stroman",JMeterUser283,Axtest,ysangalang+JMeterUser283@gmail.com
CAT284,Barton Inc,JMeterUser284,Axtest,ysangalang+JMeterUser284@gmail.com
CAT285,Gorczany LLC,JMeterUser285,Axtest,ysangalang+JMeterUser285@gmail.com
CAT286,"Donnelly, Emard and Murray",JMeterUser286,Axtest,ysangalang+JMeterUser286@gmail.com
CAT287,Hermiston Inc,JMeterUser287,Axtest,ysangalang+JMeterUser287@gmail.com
CAT288,Beahan Inc,JMeterUser288,Axtest,ysangalang+JMeterUser288@gmail.com
CAT289,Mertz and Sons,JMeterUser289,Axtest,ysangalang+JMeterUser289@gmail.com
CAT290,"Legros, Prosacco and Hagenes",JMeterUser290,Axtest,ysangalang+JMeterUser290@gmail.com
CAT291,Miller Group,JMeterUser291,Axtest,ysangalang+JMeterUser291@gmail.com
CAT292,Kassulke-Lemke,JMeterUser292,Axtest,ysangalang+JMeterUser292@gmail.com
CAT293,"Muller, Kirlin and Ziemann",JMeterUser293,Axtest,ysangalang+JMeterUser293@gmail.com
CAT294,Smitham LLC,JMeterUser294,Axtest,ysangalang+JMeterUser294@gmail.com
CAT295,"Berge, Gleason and Kshlerin",JMeterUser295,Axtest,ysangalang+JMeterUser295@gmail.com
CAT296,"Swift, Romaguera and Halvorson",JMeterUser296,Axtest,ysangalang+JMeterUser296@gmail.com
CAT297,Hayes-O'Kon,JMeterUser297,Axtest,ysangalang+JMeterUser297@gmail.com
CAT298,"Mertz, Roob and Schumm",JMeterUser298,Axtest,ysangalang+JMeterUser298@gmail.com
CAT299,"Bergnaum, Veum and Smith",JMeterUser299,Axtest,ysangalang+JMeterUser299@gmail.com
CAT300,"Reilly, Reynolds and Schinner",JMeterUser300,Axtest,ysangalang+JMeterUser300@gmail.com
CAT301,Schumm Group,JMeterUser301,Axtest,ysangalang+JMeterUser301@gmail.com
CAT302,Lindgren Group,JMeterUser302,Axtest,ysangalang+JMeterUser302@gmail.com
CAT303,O'Conner Group,JMeterUser303,Axtest,ysangalang+JMeterUser303@gmail.com
CAT304,"Sawayn, Fritsch and Gaylord",JMeterUser304,Axtest,ysangalang+JMeterUser304@gmail.com
CAT305,Crist LLC,JMeterUser305,Axtest,ysangalang+JMeterUser305@gmail.com
CAT306,McDermott-Kirlin,JMeterUser306,Axtest,ysangalang+JMeterUser306@gmail.com
CAT307,Rohan LLC,JMeterUser307,Axtest,ysangalang+JMeterUser307@gmail.com
CAT308,"Torp, Crist and Reilly",JMeterUser308,Axtest,ysangalang+JMeterUser308@gmail.com
CAT309,Cronin-Daniel,JMeterUser309,Axtest,ysangalang+JMeterUser309@gmail.com
CAT310,Littel and Sons,JMeterUser310,Axtest,ysangalang+JMeterUser310@gmail.com
CAT311,"Bins, Bailey and Mills",JMeterUser311,Axtest,ysangalang+JMeterUser311@gmail.com
CAT312,Dooley-Carter,JMeterUser312,Axtest,ysangalang+JMeterUser312@gmail.com
CAT313,Dickinson Group,JMeterUser313,Axtest,ysangalang+JMeterUser313@gmail.com
CAT314,Kessler-Cruickshank,JMeterUser314,Axtest,ysangalang+JMeterUser314@gmail.com
CAT315,Walter Group,JMeterUser315,Axtest,ysangalang+JMeterUser315@gmail.com
CAT316,Schaden-Frami,JMeterUser316,Axtest,ysangalang+JMeterUser316@gmail.com
CAT317,"Batz, Mayert and Ferry",JMeterUser317,Axtest,ysangalang+JMeterUser317@gmail.com
CAT318,"Macejkovic, Stroman and Dare",JMeterUser318,Axtest,ysangalang+JMeterUser318@gmail.com
CAT319,Gleason-Jast,JMeterUser319,Axtest,ysangalang+JMeterUser319@gmail.com
CAT320,Blick-Funk,JMeterUser320,Axtest,ysangalang+JMeterUser320@gmail.com
CAT321,Zulauf and Sons,JMeterUser321,Axtest,ysangalang+JMeterUser321@gmail.com
CAT322,Gorczany-Stroman,JMeterUser322,Axtest,ysangalang+JMeterUser322@gmail.com
CAT323,Dickens Group,JMeterUser323,Axtest,ysangalang+JMeterUser323@gmail.com
CAT324,Gutkowski LLC,JMeterUser324,Axtest,ysangalang+JMeterUser324@gmail.com
CAT325,"Schiller, Romaguera and Kuvalis",JMeterUser325,Axtest,ysangalang+JMeterUser325@gmail.com
CAT326,"Johnson, Bauch and Lehner",JMeterUser326,Axtest,ysangalang+JMeterUser326@gmail.com
CAT327,Wiza-Berge,JMeterUser327,Axtest,ysangalang+JMeterUser327@gmail.com
CAT328,Effertz-Bauch,JMeterUser328,Axtest,ysangalang+JMeterUser328@gmail.com
CAT329,O'Connell-Hauck,JMeterUser329,Axtest,ysangalang+JMeterUser329@gmail.com
CAT330,"Greenfelder, Weissnat and Mayert",JMeterUser330,Axtest,ysangalang+JMeterUser330@gmail.com
CAT331,Smith Inc,JMeterUser331,Axtest,ysangalang+JMeterUser331@gmail.com
CAT332,Johnson-Paucek,JMeterUser332,Axtest,ysangalang+JMeterUser332@gmail.com
CAT333,"Braun, Kohler and Rutherford",JMeterUser333,Axtest,ysangalang+JMeterUser333@gmail.com
CAT334,Lubowitz Inc,JMeterUser334,Axtest,ysangalang+JMeterUser334@gmail.com
CAT335,Fahey LLC,JMeterUser335,Axtest,ysangalang+JMeterUser335@gmail.com
CAT336,Quitzon and Sons,JMeterUser336,Axtest,ysangalang+JMeterUser336@gmail.com
CAT337,"Rice, Kub and Zulauf",JMeterUser337,Axtest,ysangalang+JMeterUser337@gmail.com
CAT338,Fritsch LLC,JMeterUser338,Axtest,ysangalang+JMeterUser338@gmail.com
CAT339,"Gleichner, Haag and Stanton",JMeterUser339,Axtest,ysangalang+JMeterUser339@gmail.com
CAT340,"Ruecker, Lakin and Kilback",JMeterUser340,Axtest,ysangalang+JMeterUser340@gmail.com
CAT341,Gaylord-Krajcik,JMeterUser341,Axtest,ysangalang+JMeterUser341@gmail.com
CAT342,Fisher Inc,JMeterUser342,Axtest,ysangalang+JMeterUser342@gmail.com
CAT343,Lowe and Sons,JMeterUser343,Axtest,ysangalang+JMeterUser343@gmail.com
CAT344,Kutch-Moore,JMeterUser344,Axtest,ysangalang+JMeterUser344@gmail.com
CAT345,Romaguera-Bogisich,JMeterUser345,Axtest,ysangalang+JMeterUser345@gmail.com
CAT346,"O'Hara, Huels and Tromp",JMeterUser346,Axtest,ysangalang+JMeterUser346@gmail.com
CAT347,"Rosenbaum, Kassulke and Bins",JMeterUser347,Axtest,ysangalang+JMeterUser347@gmail.com
CAT348,"Mayert, Hand and Medhurst",JMeterUser348,Axtest,ysangalang+JMeterUser348@gmail.com
CAT349,Heaney-Schuster,JMeterUser349,Axtest,ysangalang+JMeterUser349@gmail.com
CAT350,Sanford-Skiles,JMeterUser350,Axtest,ysangalang+JMeterUser350@gmail.com
CAT351,Krajcik LLC,JMeterUser351,Axtest,ysangalang+JMeterUser351@gmail.com
CAT352,Kiehn-Beer,JMeterUser352,Axtest,ysangalang+JMeterUser352@gmail.com
CAT353,Prohaska-Ward,JMeterUser353,Axtest,ysangalang+JMeterUser353@gmail.com
CAT354,"Wiegand, Price and Metz",JMeterUser354,Axtest,ysangalang+JMeterUser354@gmail.com
CAT355,"Stokes, Denesik and Lynch",JMeterUser355,Axtest,ysangalang+JMeterUser355@gmail.com
CAT356,"Predovic, Grimes and Gerhold",JMeterUser356,Axtest,ysangalang+JMeterUser356@gmail.com
CAT357,Fadel-Shanahan,JMeterUser357,Axtest,ysangalang+JMeterUser357@gmail.com
CAT358,Prohaska Group,JMeterUser358,Axtest,ysangalang+JMeterUser358@gmail.com
CAT359,"Keebler, Kohler and Hilpert",JMeterUser359,Axtest,ysangalang+JMeterUser359@gmail.com
CAT360,Aufderhar Inc,JMeterUser360,Axtest,ysangalang+JMeterUser360@gmail.com
CAT361,Homenick-Bins,JMeterUser361,Axtest,ysangalang+JMeterUser361@gmail.com
CAT362,"Kulas, Boehm and VonRueden",JMeterUser362,Axtest,ysangalang+JMeterUser362@gmail.com
CAT363,Pouros-Macejkovic,JMeterUser363,Axtest,ysangalang+JMeterUser363@gmail.com
CAT364,"Orn, Franecki and Champlin",JMeterUser364,Axtest,ysangalang+JMeterUser364@gmail.com
CAT365,Howe Group,JMeterUser365,Axtest,ysangalang+JMeterUser365@gmail.com
CAT366,Parker LLC,JMeterUser366,Axtest,ysangalang+JMeterUser366@gmail.com
CAT367,Quigley-Stark,JMeterUser367,Axtest,ysangalang+JMeterUser367@gmail.com
CAT368,Champlin Group,JMeterUser368,Axtest,ysangalang+JMeterUser368@gmail.com
CAT369,Witting Group,JMeterUser369,Axtest,ysangalang+JMeterUser369@gmail.com
CAT370,Kohler-Wilderman,JMeterUser370,Axtest,ysangalang+JMeterUser370@gmail.com
CAT371,Romaguera-Shields,JMeterUser371,Axtest,ysangalang+JMeterUser371@gmail.com
CAT372,"Dach, Crist and Stracke",JMeterUser372,Axtest,ysangalang+JMeterUser372@gmail.com
CAT373,Hodkiewicz Inc,JMeterUser373,Axtest,ysangalang+JMeterUser373@gmail.com
CAT374,Shields-Hansen,JMeterUser374,Axtest,ysangalang+JMeterUser374@gmail.com
CAT375,Bergstrom-Murray,JMeterUser375,Axtest,ysangalang+JMeterUser375@gmail.com
CAT376,Beier-Kerluke,JMeterUser376,Axtest,ysangalang+JMeterUser376@gmail.com
CAT377,Koch-Purdy,JMeterUser377,Axtest,ysangalang+JMeterUser377@gmail.com
CAT378,"Bashirian, Muller and Goldner",JMeterUser378,Axtest,ysangalang+JMeterUser378@gmail.com
CAT379,"Braun, Kub and Hermann",JMeterUser379,Axtest,ysangalang+JMeterUser379@gmail.com
CAT380,Kilback Inc,JMeterUser380,Axtest,ysangalang+JMeterUser380@gmail.com
CAT381,Corwin-Wisozk,JMeterUser381,Axtest,ysangalang+JMeterUser381@gmail.com
CAT382,Ritchie-Bartell,JMeterUser382,Axtest,ysangalang+JMeterUser382@gmail.com
CAT383,Bernhard LLC,JMeterUser383,Axtest,ysangalang+JMeterUser383@gmail.com
CAT384,Torp-Raynor,JMeterUser384,Axtest,ysangalang+JMeterUser384@gmail.com
CAT385,O'Hara-Douglas,JMeterUser385,Axtest,ysangalang+JMeterUser385@gmail.com
CAT386,Klein Inc,JMeterUser386,Axtest,ysangalang+JMeterUser386@gmail.com
CAT387,Fisher LLC,JMeterUser387,Axtest,ysangalang+JMeterUser387@gmail.com
CAT388,Baumbach and Sons,JMeterUser388,Axtest,ysangalang+JMeterUser388@gmail.com
CAT389,Paucek LLC,JMeterUser389,Axtest,ysangalang+JMeterUser389@gmail.com
CAT390,Kub-Lang,JMeterUser390,Axtest,ysangalang+JMeterUser390@gmail.com
CAT391,Bahringer LLC,JMeterUser391,Axtest,ysangalang+JMeterUser391@gmail.com
CAT392,"Kshlerin, Hayes and Adams",JMeterUser392,Axtest,ysangalang+JMeterUser392@gmail.com
CAT393,"Roberts, Hansen and Stehr",JMeterUser393,Axtest,ysangalang+JMeterUser393@gmail.com
CAT394,"Feest, Mayert and Lockman",JMeterUser394,Axtest,ysangalang+JMeterUser394@gmail.com
CAT395,McLaughlin LLC,JMeterUser395,Axtest,ysangalang+JMeterUser395@gmail.com
CAT396,Grady Group,JMeterUser396,Axtest,ysangalang+JMeterUser396@gmail.com
CAT397,Bode-Lehner,JMeterUser397,Axtest,ysangalang+JMeterUser397@gmail.com
CAT398,"Parker, Moore and Carroll",JMeterUser398,Axtest,ysangalang+JMeterUser398@gmail.com
CAT399,"Bins, Bogan and Mueller",JMeterUser399,Axtest,ysangalang+JMeterUser399@gmail.com
CAT400,Windler LLC,JMeterUser400,Axtest,ysangalang+JMeterUser400@gmail.com
CAT401,"Spencer, Larson and Crist",JMeterUser401,Axtest,ysangalang+JMeterUser401@gmail.com
CAT402,Terry Group,JMeterUser402,Axtest,ysangalang+JMeterUser402@gmail.com
CAT403,Stracke-Koch,JMeterUser403,Axtest,ysangalang+JMeterUser403@gmail.com
CAT404,Nolan LLC,JMeterUser404,Axtest,ysangalang+JMeterUser404@gmail.com
CAT405,"Zboncak, Bergnaum and Roob",JMeterUser405,Axtest,ysangalang+JMeterUser405@gmail.com
CAT406,"Mills, Marvin and Herman",JMeterUser406,Axtest,ysangalang+JMeterUser406@gmail.com
CAT407,"Jacobson, Koelpin and Pouros",JMeterUser407,Axtest,ysangalang+JMeterUser407@gmail.com
CAT408,"Johnston, Baumbach and Hilpert",JMeterUser408,Axtest,ysangalang+JMeterUser408@gmail.com
CAT409,Jast Group,JMeterUser409,Axtest,ysangalang+JMeterUser409@gmail.com
CAT410,Mann LLC,JMeterUser410,Axtest,ysangalang+JMeterUser410@gmail.com
CAT411,"Cremin, Kub and Koelpin",JMeterUser411,Axtest,ysangalang+JMeterUser411@gmail.com
CAT412,Gaylord-Wehner,JMeterUser412,Axtest,ysangalang+JMeterUser412@gmail.com
CAT413,Reynolds-Hand,JMeterUser413,Axtest,ysangalang+JMeterUser413@gmail.com
CAT414,"Wolf, Kuhic and Wuckert",JMeterUser414,Axtest,ysangalang+JMeterUser414@gmail.com
CAT415,Orn and Sons,JMeterUser415,Axtest,ysangalang+JMeterUser415@gmail.com
CAT416,Murazik-Ruecker,JMeterUser416,Axtest,ysangalang+JMeterUser416@gmail.com
CAT417,Hammes-Rice,JMeterUser417,Axtest,ysangalang+JMeterUser417@gmail.com
CAT418,"McKenzie, Lindgren and Windler",JMeterUser418,Axtest,ysangalang+JMeterUser418@gmail.com
CAT419,Goldner Group,JMeterUser419,Axtest,ysangalang+JMeterUser419@gmail.com
CAT420,Hansen and Sons,JMeterUser420,Axtest,ysangalang+JMeterUser420@gmail.com
CAT421,Koch LLC,JMeterUser421,Axtest,ysangalang+JMeterUser421@gmail.com
CAT422,Bruen Group,JMeterUser422,Axtest,ysangalang+JMeterUser422@gmail.com
CAT423,Labadie-Hyatt,JMeterUser423,Axtest,ysangalang+JMeterUser423@gmail.com
CAT424,Corwin Inc,JMeterUser424,Axtest,ysangalang+JMeterUser424@gmail.com
CAT425,Lehner and Sons,JMeterUser425,Axtest,ysangalang+JMeterUser425@gmail.com
CAT426,Dickinson LLC,JMeterUser426,Axtest,ysangalang+JMeterUser426@gmail.com
CAT427,Schmidt-Thiel,JMeterUser427,Axtest,ysangalang+JMeterUser427@gmail.com
CAT428,"Von, Sanford and Dietrich",JMeterUser428,Axtest,ysangalang+JMeterUser428@gmail.com
CAT429,Cremin and Sons,JMeterUser429,Axtest,ysangalang+JMeterUser429@gmail.com
CAT430,Hermiston-Davis,JMeterUser430,Axtest,ysangalang+JMeterUser430@gmail.com
CAT431,Bogan-Leuschke,JMeterUser431,Axtest,ysangalang+JMeterUser431@gmail.com
CAT432,Schoen LLC,JMeterUser432,Axtest,ysangalang+JMeterUser432@gmail.com
CAT433,Wisozk and Sons,JMeterUser433,Axtest,ysangalang+JMeterUser433@gmail.com
CAT434,Boyer Inc,JMeterUser434,Axtest,ysangalang+JMeterUser434@gmail.com
CAT435,Spinka Group,JMeterUser435,Axtest,ysangalang+JMeterUser435@gmail.com
CAT436,Goyette-Kub,JMeterUser436,Axtest,ysangalang+JMeterUser436@gmail.com
CAT437,Mann-Baumbach,JMeterUser437,Axtest,ysangalang+JMeterUser437@gmail.com
CAT438,"Simonis, Fahey and Feil",JMeterUser438,Axtest,ysangalang+JMeterUser438@gmail.com
CAT439,"Langworth, O'Connell and Rempel",JMeterUser439,Axtest,ysangalang+JMeterUser439@gmail.com
CAT440,"Stoltenberg, Ortiz and Wilderman",JMeterUser440,Axtest,ysangalang+JMeterUser440@gmail.com
CAT441,Mann Group,JMeterUser441,Axtest,ysangalang+JMeterUser441@gmail.com
CAT442,Effertz Group,JMeterUser442,Axtest,ysangalang+JMeterUser442@gmail.com
CAT443,Gleichner-Skiles,JMeterUser443,Axtest,ysangalang+JMeterUser443@gmail.com
CAT444,Nienow and Sons,JMeterUser444,Axtest,ysangalang+JMeterUser444@gmail.com
CAT445,"Rau, Erdman and Nienow",JMeterUser445,Axtest,ysangalang+JMeterUser445@gmail.com
CAT446,Gerhold-Yost,JMeterUser446,Axtest,ysangalang+JMeterUser446@gmail.com
CAT447,Quitzon Group,JMeterUser447,Axtest,ysangalang+JMeterUser447@gmail.com
CAT448,"Skiles, Botsford and Wiza",JMeterUser448,Axtest,ysangalang+JMeterUser448@gmail.com
CAT449,Durgan-Stokes,JMeterUser449,Axtest,ysangalang+JMeterUser449@gmail.com
CAT450,Herzog-Schroeder,JMeterUser450,Axtest,ysangalang+JMeterUser450@gmail.com
CAT451,Powlowski-Schmitt,JMeterUser451,Axtest,ysangalang+JMeterUser451@gmail.com
CAT452,Schulist Group,JMeterUser452,Axtest,ysangalang+JMeterUser452@gmail.com
CAT453,"Nikolaus, Kertzmann and West",JMeterUser453,Axtest,ysangalang+JMeterUser453@gmail.com
CAT454,Torp Group,JMeterUser454,Axtest,ysangalang+JMeterUser454@gmail.com
CAT455,Mueller-Cassin,JMeterUser455,Axtest,ysangalang+JMeterUser455@gmail.com
CAT456,"Becker, Bailey and Stanton",JMeterUser456,Axtest,ysangalang+JMeterUser456@gmail.com
CAT457,Goldner-Jerde,JMeterUser457,Axtest,ysangalang+JMeterUser457@gmail.com
CAT458,Feest-Wiza,JMeterUser458,Axtest,ysangalang+JMeterUser458@gmail.com
CAT459,"Ferry, Ziemann and Robel",JMeterUser459,Axtest,ysangalang+JMeterUser459@gmail.com
CAT460,"Price, Feil and Leannon",JMeterUser460,Axtest,ysangalang+JMeterUser460@gmail.com
CAT461,Ondricka-Hyatt,JMeterUser461,Axtest,ysangalang+JMeterUser461@gmail.com
CAT462,"Weber, Crooks and Marks",JMeterUser462,Axtest,ysangalang+JMeterUser462@gmail.com
CAT463,Murazik LLC,JMeterUser463,Axtest,ysangalang+JMeterUser463@gmail.com
CAT464,Shanahan Inc,JMeterUser464,Axtest,ysangalang+JMeterUser464@gmail.com
CAT465,"Jacobi, Hermann and Hand",JMeterUser465,Axtest,ysangalang+JMeterUser465@gmail.com
CAT466,Gulgowski LLC,JMeterUser466,Axtest,ysangalang+JMeterUser466@gmail.com
CAT467,Lynch-Abshire,JMeterUser467,Axtest,ysangalang+JMeterUser467@gmail.com
CAT468,Fritsch Group,JMeterUser468,Axtest,ysangalang+JMeterUser468@gmail.com
CAT469,Maggio and Sons,JMeterUser469,Axtest,ysangalang+JMeterUser469@gmail.com
CAT470,Torp LLC,JMeterUser470,Axtest,ysangalang+JMeterUser470@gmail.com
CAT471,DuBuque-Hoeger,JMeterUser471,Axtest,ysangalang+JMeterUser471@gmail.com
CAT472,"Waters, Hansen and Block",JMeterUser472,Axtest,ysangalang+JMeterUser472@gmail.com
CAT473,"Schaefer, Jenkins and Schneider",JMeterUser473,Axtest,ysangalang+JMeterUser473@gmail.com
CAT474,Prohaska and Sons,JMeterUser474,Axtest,ysangalang+JMeterUser474@gmail.com
CAT475,Crooks-Kunze,JMeterUser475,Axtest,ysangalang+JMeterUser475@gmail.com
CAT476,"West, Quigley and McCullough",JMeterUser476,Axtest,ysangalang+JMeterUser476@gmail.com
CAT477,"Heaney, Doyle and Goldner",JMeterUser477,Axtest,ysangalang+JMeterUser477@gmail.com
CAT478,"Bernier, Hilpert and Powlowski",JMeterUser478,Axtest,ysangalang+JMeterUser478@gmail.com
CAT479,Shanahan and Sons,JMeterUser479,Axtest,ysangalang+JMeterUser479@gmail.com
CAT480,Herman LLC,JMeterUser480,Axtest,ysangalang+JMeterUser480@gmail.com
CAT481,Mills-Watsica,JMeterUser481,Axtest,ysangalang+JMeterUser481@gmail.com
CAT482,Heidenreich Group,JMeterUser482,Axtest,ysangalang+JMeterUser482@gmail.com
CAT483,Kilback-Skiles,JMeterUser483,Axtest,ysangalang+JMeterUser483@gmail.com
CAT484,Bode-Bernier,JMeterUser484,Axtest,ysangalang+JMeterUser484@gmail.com
CAT485,Buckridge LLC,JMeterUser485,Axtest,ysangalang+JMeterUser485@gmail.com
CAT486,Flatley-Predovic,JMeterUser486,Axtest,ysangalang+JMeterUser486@gmail.com
CAT487,"Leannon, O'Kon and Jacobs",JMeterUser487,Axtest,ysangalang+JMeterUser487@gmail.com
CAT488,Lemke-Bogan,JMeterUser488,Axtest,ysangalang+JMeterUser488@gmail.com
CAT489,Kuhic-Batz,JMeterUser489,Axtest,ysangalang+JMeterUser489@gmail.com
CAT490,Kovacek Inc,JMeterUser490,Axtest,ysangalang+JMeterUser490@gmail.com
CAT491,"Swaniawski, Windler and Haley",JMeterUser491,Axtest,ysangalang+JMeterUser491@gmail.com
CAT492,"Hermiston, Emard and Dooley",JMeterUser492,Axtest,ysangalang+JMeterUser492@gmail.com
CAT493,Klocko LLC,JMeterUser493,Axtest,ysangalang+JMeterUser493@gmail.com
CAT494,Metz-Considine,JMeterUser494,Axtest,ysangalang+JMeterUser494@gmail.com
CAT495,"Kertzmann, Hudson and Connelly",JMeterUser495,Axtest,ysangalang+JMeterUser495@gmail.com
CAT496,"Abbott, Gerhold and Gorczany",JMeterUser496,Axtest,ysangalang+JMeterUser496@gmail.com
CAT497,Reynolds-Dare,JMeterUser497,Axtest,ysangalang+JMeterUser497@gmail.com
CAT498,Gleichner-Emard,JMeterUser498,Axtest,ysangalang+JMeterUser498@gmail.com
CAT499,Marks and Sons,JMeterUser499,Axtest,ysangalang+JMeterUser499@gmail.com
CAT500,Hoeger-Orn,JMeterUser500,Axtest,ysangalang+JMeterUser500@gmail.com
CAT501,Crona-Jacobs,JMeterUser501,Axtest,ysangalang+JMeterUser501@gmail.com
CAT502,"Mueller, O'Conner and Pfeffer",JMeterUser502,Axtest,ysangalang+JMeterUser502@gmail.com
CAT503,Emmerich Inc,JMeterUser503,Axtest,ysangalang+JMeterUser503@gmail.com
CAT504,"Simonis, Roob and Ward",JMeterUser504,Axtest,ysangalang+JMeterUser504@gmail.com
CAT505,Ferry-Harvey,JMeterUser505,Axtest,ysangalang+JMeterUser505@gmail.com
CAT506,Jakubowski-Block,JMeterUser506,Axtest,ysangalang+JMeterUser506@gmail.com
CAT507,Feil Inc,JMeterUser507,Axtest,ysangalang+JMeterUser507@gmail.com
CAT508,Morar and Sons,JMeterUser508,Axtest,ysangalang+JMeterUser508@gmail.com
CAT509,Pfannerstill and Sons,JMeterUser509,Axtest,ysangalang+JMeterUser509@gmail.com
CAT510,"Lynch, Towne and Nader",JMeterUser510,Axtest,ysangalang+JMeterUser510@gmail.com
CAT511,"Murray, Halvorson and Maggio",JMeterUser511,Axtest,ysangalang+JMeterUser511@gmail.com
CAT512,"Terry, Blick and Kihn",JMeterUser512,Axtest,ysangalang+JMeterUser512@gmail.com
CAT513,"Zboncak, Wilderman and Wyman",JMeterUser513,Axtest,ysangalang+JMeterUser513@gmail.com
CAT514,Windler and Sons,JMeterUser514,Axtest,ysangalang+JMeterUser514@gmail.com
CAT515,Mueller-Deckow,JMeterUser515,Axtest,ysangalang+JMeterUser515@gmail.com
CAT516,Jaskolski Inc,JMeterUser516,Axtest,ysangalang+JMeterUser516@gmail.com
CAT517,Bergnaum LLC,JMeterUser517,Axtest,ysangalang+JMeterUser517@gmail.com
CAT518,Waelchi Inc,JMeterUser518,Axtest,ysangalang+JMeterUser518@gmail.com
CAT519,Marquardt Group,JMeterUser519,Axtest,ysangalang+JMeterUser519@gmail.com
CAT520,Wuckert-Lang,JMeterUser520,Axtest,ysangalang+JMeterUser520@gmail.com
CAT521,"Schowalter, Crooks and Bechtelar",JMeterUser521,Axtest,ysangalang+JMeterUser521@gmail.com
CAT522,Homenick-Hamill,JMeterUser522,Axtest,ysangalang+JMeterUser522@gmail.com
CAT523,Nienow-Dietrich,JMeterUser523,Axtest,ysangalang+JMeterUser523@gmail.com
CAT524,Ondricka and Sons,JMeterUser524,Axtest,ysangalang+JMeterUser524@gmail.com
CAT525,Ziemann-Konopelski,JMeterUser525,Axtest,ysangalang+JMeterUser525@gmail.com
CAT526,Maggio Group,JMeterUser526,Axtest,ysangalang+JMeterUser526@gmail.com
CAT527,Kreiger LLC,JMeterUser527,Axtest,ysangalang+JMeterUser527@gmail.com
CAT528,Maggio-Lowe,JMeterUser528,Axtest,ysangalang+JMeterUser528@gmail.com
CAT529,Hettinger LLC,JMeterUser529,Axtest,ysangalang+JMeterUser529@gmail.com
CAT530,Gleason and Sons,JMeterUser530,Axtest,ysangalang+JMeterUser530@gmail.com
CAT531,Auer-McDermott,JMeterUser531,Axtest,ysangalang+JMeterUser531@gmail.com
CAT532,Senger Inc,JMeterUser532,Axtest,ysangalang+JMeterUser532@gmail.com
CAT533,Lebsack Inc,JMeterUser533,Axtest,ysangalang+JMeterUser533@gmail.com
CAT534,Strosin Group,JMeterUser534,Axtest,ysangalang+JMeterUser534@gmail.com
CAT535,Tremblay-Cronin,JMeterUser535,Axtest,ysangalang+JMeterUser535@gmail.com
CAT536,Predovic Inc,JMeterUser536,Axtest,ysangalang+JMeterUser536@gmail.com
CAT537,Parker and Sons,JMeterUser537,Axtest,ysangalang+JMeterUser537@gmail.com
CAT538,Brakus-Tremblay,JMeterUser538,Axtest,ysangalang+JMeterUser538@gmail.com
CAT539,Walker-Grant,JMeterUser539,Axtest,ysangalang+JMeterUser539@gmail.com
CAT540,Powlowski Group,JMeterUser540,Axtest,ysangalang+JMeterUser540@gmail.com
CAT541,"Hammes, Strosin and Kuhlman",JMeterUser541,Axtest,ysangalang+JMeterUser541@gmail.com
CAT542,"Crooks, Medhurst and Renner",JMeterUser542,Axtest,ysangalang+JMeterUser542@gmail.com
CAT543,Fay Inc,JMeterUser543,Axtest,ysangalang+JMeterUser543@gmail.com
CAT544,"Marquardt, Paucek and Schmidt",JMeterUser544,Axtest,ysangalang+JMeterUser544@gmail.com
CAT545,Johns-Collier,JMeterUser545,Axtest,ysangalang+JMeterUser545@gmail.com
CAT546,Hills and Sons,JMeterUser546,Axtest,ysangalang+JMeterUser546@gmail.com
CAT547,Batz Inc,JMeterUser547,Axtest,ysangalang+JMeterUser547@gmail.com
CAT548,Koss and Sons,JMeterUser548,Axtest,ysangalang+JMeterUser548@gmail.com
CAT549,Connelly-Cummings,JMeterUser549,Axtest,ysangalang+JMeterUser549@gmail.com
CAT550,Hahn-Littel,JMeterUser550,Axtest,ysangalang+JMeterUser550@gmail.com
CAT551,Jakubowski-Terry,JMeterUser551,Axtest,ysangalang+JMeterUser551@gmail.com
CAT552,Cummings Inc,JMeterUser552,Axtest,ysangalang+JMeterUser552@gmail.com
CAT553,Schumm-Wuckert,JMeterUser553,Axtest,ysangalang+JMeterUser553@gmail.com
CAT554,Ernser-Schmeler,JMeterUser554,Axtest,ysangalang+JMeterUser554@gmail.com
CAT555,Boehm-Block,JMeterUser555,Axtest,ysangalang+JMeterUser555@gmail.com
CAT556,Flatley-Little,JMeterUser556,Axtest,ysangalang+JMeterUser556@gmail.com
CAT557,Leffler-Thiel,JMeterUser557,Axtest,ysangalang+JMeterUser557@gmail.com
CAT558,Tromp-Mitchell,JMeterUser558,Axtest,ysangalang+JMeterUser558@gmail.com
CAT559,Nicolas LLC,JMeterUser559,Axtest,ysangalang+JMeterUser559@gmail.com
CAT560,Donnelly-Romaguera,JMeterUser560,Axtest,ysangalang+JMeterUser560@gmail.com
CAT561,Feil-Ortiz,JMeterUser561,Axtest,ysangalang+JMeterUser561@gmail.com
CAT562,"Greenfelder, Rutherford and Zulauf",JMeterUser562,Axtest,ysangalang+JMeterUser562@gmail.com
CAT563,Fritsch Group,JMeterUser563,Axtest,ysangalang+JMeterUser563@gmail.com
CAT564,"Breitenberg, Marks and Farrell",JMeterUser564,Axtest,ysangalang+JMeterUser564@gmail.com
CAT565,Purdy-Weber,JMeterUser565,Axtest,ysangalang+JMeterUser565@gmail.com
CAT566,Jerde and Sons,JMeterUser566,Axtest,ysangalang+JMeterUser566@gmail.com
CAT567,Hamill-Jones,JMeterUser567,Axtest,ysangalang+JMeterUser567@gmail.com
CAT568,"Schimmel, Leannon and Beer",JMeterUser568,Axtest,ysangalang+JMeterUser568@gmail.com
CAT569,Lynch Inc,JMeterUser569,Axtest,ysangalang+JMeterUser569@gmail.com
CAT570,Glover-Yundt,JMeterUser570,Axtest,ysangalang+JMeterUser570@gmail.com
CAT571,"Dibbert, Dibbert and Parker",JMeterUser571,Axtest,ysangalang+JMeterUser571@gmail.com
CAT572,Weissnat and Sons,JMeterUser572,Axtest,ysangalang+JMeterUser572@gmail.com
CAT573,"Beahan, Goyette and Gusikowski",JMeterUser573,Axtest,ysangalang+JMeterUser573@gmail.com
CAT574,Boehm-D'Amore,JMeterUser574,Axtest,ysangalang+JMeterUser574@gmail.com
CAT575,"Kuvalis, Senger and Schamberger",JMeterUser575,Axtest,ysangalang+JMeterUser575@gmail.com
CAT576,Bode-Parker,JMeterUser576,Axtest,ysangalang+JMeterUser576@gmail.com
CAT577,Conroy Inc,JMeterUser577,Axtest,ysangalang+JMeterUser577@gmail.com
CAT578,Mosciski-Hettinger,JMeterUser578,Axtest,ysangalang+JMeterUser578@gmail.com
CAT579,Boyer Inc,JMeterUser579,Axtest,ysangalang+JMeterUser579@gmail.com
CAT580,O'Conner Inc,JMeterUser580,Axtest,ysangalang+JMeterUser580@gmail.com
CAT581,Predovic-Corwin,JMeterUser581,Axtest,ysangalang+JMeterUser581@gmail.com
CAT582,Quitzon Inc,JMeterUser582,Axtest,ysangalang+JMeterUser582@gmail.com
CAT583,"Wolf, Gutmann and Howell",JMeterUser583,Axtest,ysangalang+JMeterUser583@gmail.com
CAT584,Hermann and Sons,JMeterUser584,Axtest,ysangalang+JMeterUser584@gmail.com
CAT585,"Mann, Bayer and Thompson",JMeterUser585,Axtest,ysangalang+JMeterUser585@gmail.com
CAT586,"Johnson, Rogahn and Crona",JMeterUser586,Axtest,ysangalang+JMeterUser586@gmail.com
CAT587,"Hahn, Rosenbaum and Larkin",JMeterUser587,Axtest,ysangalang+JMeterUser587@gmail.com
CAT588,"Wilkinson, Corwin and Kreiger",JMeterUser588,Axtest,ysangalang+JMeterUser588@gmail.com
CAT589,Wiza LLC,JMeterUser589,Axtest,ysangalang+JMeterUser589@gmail.com
CAT590,Osinski Inc,JMeterUser590,Axtest,ysangalang+JMeterUser590@gmail.com
CAT591,Konopelski and Sons,JMeterUser591,Axtest,ysangalang+JMeterUser591@gmail.com
CAT592,Oberbrunner-Nolan,JMeterUser592,Axtest,ysangalang+JMeterUser592@gmail.com
CAT593,Stark-Borer,JMeterUser593,Axtest,ysangalang+JMeterUser593@gmail.com
CAT594,"Shanahan, Dickinson and Schuster",JMeterUser594,Axtest,ysangalang+JMeterUser594@gmail.com
CAT595,"Wehner, Fritsch and Williamson",JMeterUser595,Axtest,ysangalang+JMeterUser595@gmail.com
CAT596,"Williamson, O'Conner and Lesch",JMeterUser596,Axtest,ysangalang+JMeterUser596@gmail.com
CAT597,Cummerata Group,JMeterUser597,Axtest,ysangalang+JMeterUser597@gmail.com
CAT598,Price LLC,JMeterUser598,Axtest,ysangalang+JMeterUser598@gmail.com
CAT599,"Wehner, Hagenes and Gleason",JMeterUser599,Axtest,ysangalang+JMeterUser599@gmail.com
CAT600,"Lindgren, Grimes and Mraz",JMeterUser600,Axtest,ysangalang+JMeterUser600@gmail.com
CAT601,Larkin-Ryan,JMeterUser601,Axtest,ysangalang+JMeterUser601@gmail.com
CAT602,Block and Sons,JMeterUser602,Axtest,ysangalang+JMeterUser602@gmail.com
CAT603,Moore LLC,JMeterUser603,Axtest,ysangalang+JMeterUser603@gmail.com
CAT604,Keeling and Sons,JMeterUser604,Axtest,ysangalang+JMeterUser604@gmail.com
CAT605,Nader-Wiza,JMeterUser605,Axtest,ysangalang+JMeterUser605@gmail.com
CAT606,Wolff-Kuhlman,JMeterUser606,Axtest,ysangalang+JMeterUser606@gmail.com
CAT607,"Satterfield, Legros and Tromp",JMeterUser607,Axtest,ysangalang+JMeterUser607@gmail.com
CAT608,Sauer-Miller,JMeterUser608,Axtest,ysangalang+JMeterUser608@gmail.com
CAT609,"Monahan, Hickle and Bechtelar",JMeterUser609,Axtest,ysangalang+JMeterUser609@gmail.com
CAT610,"Stamm, Nikolaus and Cremin",JMeterUser610,Axtest,ysangalang+JMeterUser610@gmail.com
CAT611,"Denesik, Bradtke and Lebsack",JMeterUser611,Axtest,ysangalang+JMeterUser611@gmail.com
CAT612,Strosin-Rau,JMeterUser612,Axtest,ysangalang+JMeterUser612@gmail.com
CAT613,Bayer LLC,JMeterUser613,Axtest,ysangalang+JMeterUser613@gmail.com
CAT614,Howe-Hyatt,JMeterUser614,Axtest,ysangalang+JMeterUser614@gmail.com
CAT615,Schinner Inc,JMeterUser615,Axtest,ysangalang+JMeterUser615@gmail.com
CAT616,Koepp-Kreiger,JMeterUser616,Axtest,ysangalang+JMeterUser616@gmail.com
CAT617,Lindgren-Graham,JMeterUser617,Axtest,ysangalang+JMeterUser617@gmail.com
CAT618,Turcotte-Gerhold,JMeterUser618,Axtest,ysangalang+JMeterUser618@gmail.com
CAT619,Altenwerth-Schulist,JMeterUser619,Axtest,ysangalang+JMeterUser619@gmail.com
CAT620,Schuster-Leuschke,JMeterUser620,Axtest,ysangalang+JMeterUser620@gmail.com
CAT621,Durgan-D'Amore,JMeterUser621,Axtest,ysangalang+JMeterUser621@gmail.com
CAT622,Olson-Schaden,JMeterUser622,Axtest,ysangalang+JMeterUser622@gmail.com
CAT623,"Luettgen, Reichert and Schaden",JMeterUser623,Axtest,ysangalang+JMeterUser623@gmail.com
CAT624,"Gerlach, Champlin and Hudson",JMeterUser624,Axtest,ysangalang+JMeterUser624@gmail.com
CAT625,Konopelski Group,JMeterUser625,Axtest,ysangalang+JMeterUser625@gmail.com
CAT626,"Jakubowski, Conn and Okuneva",JMeterUser626,Axtest,ysangalang+JMeterUser626@gmail.com
CAT627,Jones-Hagenes,JMeterUser627,Axtest,ysangalang+JMeterUser627@gmail.com
CAT628,McCullough and Sons,JMeterUser628,Axtest,ysangalang+JMeterUser628@gmail.com
CAT629,Sporer LLC,JMeterUser629,Axtest,ysangalang+JMeterUser629@gmail.com
CAT630,Gusikowski-Herzog,JMeterUser630,Axtest,ysangalang+JMeterUser630@gmail.com
CAT631,Nitzsche-Miller,JMeterUser631,Axtest,ysangalang+JMeterUser631@gmail.com
CAT632,"Stroman, Mohr and Tremblay",JMeterUser632,Axtest,ysangalang+JMeterUser632@gmail.com
CAT633,Volkman Group,JMeterUser633,Axtest,ysangalang+JMeterUser633@gmail.com
CAT634,"Mayer, Cassin and Pollich",JMeterUser634,Axtest,ysangalang+JMeterUser634@gmail.com
CAT635,Cronin and Sons,JMeterUser635,Axtest,ysangalang+JMeterUser635@gmail.com
CAT636,Murray Inc,JMeterUser636,Axtest,ysangalang+JMeterUser636@gmail.com
CAT637,"Nienow, Mills and Nader",JMeterUser637,Axtest,ysangalang+JMeterUser637@gmail.com
CAT638,Marquardt and Sons,JMeterUser638,Axtest,ysangalang+JMeterUser638@gmail.com
CAT639,Hartmann-Pagac,JMeterUser639,Axtest,ysangalang+JMeterUser639@gmail.com
CAT640,Bauch LLC,JMeterUser640,Axtest,ysangalang+JMeterUser640@gmail.com
CAT641,Frami Inc,JMeterUser641,Axtest,ysangalang+JMeterUser641@gmail.com
CAT642,"Cummings, Ernser and Runte",JMeterUser642,Axtest,ysangalang+JMeterUser642@gmail.com
CAT643,Kiehn Group,JMeterUser643,Axtest,ysangalang+JMeterUser643@gmail.com
CAT644,"Block, Dickens and Weber",JMeterUser644,Axtest,ysangalang+JMeterUser644@gmail.com
CAT645,"Bauch, Robel and Fadel",JMeterUser645,Axtest,ysangalang+JMeterUser645@gmail.com
CAT646,"Tremblay, O'Conner and Dooley",JMeterUser646,Axtest,ysangalang+JMeterUser646@gmail.com
CAT647,"Shields, Barrows and Schmitt",JMeterUser647,Axtest,ysangalang+JMeterUser647@gmail.com
CAT648,"Tromp, Langosh and Paucek",JMeterUser648,Axtest,ysangalang+JMeterUser648@gmail.com
CAT649,Mohr-Reynolds,JMeterUser649,Axtest,ysangalang+JMeterUser649@gmail.com
CAT650,Wilderman and Sons,JMeterUser650,Axtest,ysangalang+JMeterUser650@gmail.com
CAT651,Hermann-Kiehn,JMeterUser651,Axtest,ysangalang+JMeterUser651@gmail.com
CAT652,"Jast, Quitzon and Mayert",JMeterUser652,Axtest,ysangalang+JMeterUser652@gmail.com
CAT653,Jacobs-Hansen,JMeterUser653,Axtest,ysangalang+JMeterUser653@gmail.com
CAT654,Schuster-Corkery,JMeterUser654,Axtest,ysangalang+JMeterUser654@gmail.com
CAT655,"Moore, Will and VonRueden",JMeterUser655,Axtest,ysangalang+JMeterUser655@gmail.com
CAT656,"Howe, Feil and Grady",JMeterUser656,Axtest,ysangalang+JMeterUser656@gmail.com
CAT657,"Shields, VonRueden and Stiedemann",JMeterUser657,Axtest,ysangalang+JMeterUser657@gmail.com
CAT658,"Rosenbaum, Goyette and Haag",JMeterUser658,Axtest,ysangalang+JMeterUser658@gmail.com
CAT659,Pagac-Ziemann,JMeterUser659,Axtest,ysangalang+JMeterUser659@gmail.com
CAT660,"Ledner, Johns and Keebler",JMeterUser660,Axtest,ysangalang+JMeterUser660@gmail.com
CAT661,Turner-Mante,JMeterUser661,Axtest,ysangalang+JMeterUser661@gmail.com
CAT662,Kutch LLC,JMeterUser662,Axtest,ysangalang+JMeterUser662@gmail.com
CAT663,Toy LLC,JMeterUser663,Axtest,ysangalang+JMeterUser663@gmail.com
CAT664,Fritsch and Sons,JMeterUser664,Axtest,ysangalang+JMeterUser664@gmail.com
CAT665,"Casper, MacGyver and Carroll",JMeterUser665,Axtest,ysangalang+JMeterUser665@gmail.com
CAT666,Bechtelar LLC,JMeterUser666,Axtest,ysangalang+JMeterUser666@gmail.com
CAT667,"Hartmann, Hoeger and Blick",JMeterUser667,Axtest,ysangalang+JMeterUser667@gmail.com
CAT668,"Farrell, Leuschke and Metz",JMeterUser668,Axtest,ysangalang+JMeterUser668@gmail.com
CAT669,Lang Inc,JMeterUser669,Axtest,ysangalang+JMeterUser669@gmail.com
CAT670,Nicolas-Boehm,JMeterUser670,Axtest,ysangalang+JMeterUser670@gmail.com
CAT671,"Luettgen, Sporer and McKenzie",JMeterUser671,Axtest,ysangalang+JMeterUser671@gmail.com
CAT672,"Wintheiser, Nader and Anderson",JMeterUser672,Axtest,ysangalang+JMeterUser672@gmail.com
CAT673,Metz Group,JMeterUser673,Axtest,ysangalang+JMeterUser673@gmail.com
CAT674,Powlowski LLC,JMeterUser674,Axtest,ysangalang+JMeterUser674@gmail.com
CAT675,Considine-Lang,JMeterUser675,Axtest,ysangalang+JMeterUser675@gmail.com
CAT676,"Jacobson, Leuschke and Kiehn",JMeterUser676,Axtest,ysangalang+JMeterUser676@gmail.com
CAT677,Terry Group,JMeterUser677,Axtest,ysangalang+JMeterUser677@gmail.com
CAT678,"Considine, Bechtelar and Corwin",JMeterUser678,Axtest,ysangalang+JMeterUser678@gmail.com
CAT679,"Ebert, Weimann and Roob",JMeterUser679,Axtest,ysangalang+JMeterUser679@gmail.com
CAT680,Harber and Sons,JMeterUser680,Axtest,ysangalang+JMeterUser680@gmail.com
CAT681,"Macejkovic, Considine and Hand",JMeterUser681,Axtest,ysangalang+JMeterUser681@gmail.com
CAT682,Wilderman-Dicki,JMeterUser682,Axtest,ysangalang+JMeterUser682@gmail.com
CAT683,Trantow-Kutch,JMeterUser683,Axtest,ysangalang+JMeterUser683@gmail.com
CAT684,Fisher-Kuphal,JMeterUser684,Axtest,ysangalang+JMeterUser684@gmail.com
CAT685,O'Reilly-O'Reilly,JMeterUser685,Axtest,ysangalang+JMeterUser685@gmail.com
CAT686,Kirlin-Bergstrom,JMeterUser686,Axtest,ysangalang+JMeterUser686@gmail.com
CAT687,"Waelchi, Bode and Dietrich",JMeterUser687,Axtest,ysangalang+JMeterUser687@gmail.com
CAT688,Sanford Group,JMeterUser688,Axtest,ysangalang+JMeterUser688@gmail.com
CAT689,Pollich LLC,JMeterUser689,Axtest,ysangalang+JMeterUser689@gmail.com
CAT690,Greenholt-O'Hara,JMeterUser690,Axtest,ysangalang+JMeterUser690@gmail.com
CAT691,Becker LLC,JMeterUser691,Axtest,ysangalang+JMeterUser691@gmail.com
CAT692,Hansen LLC,JMeterUser692,Axtest,ysangalang+JMeterUser692@gmail.com
CAT693,Dooley LLC,JMeterUser693,Axtest,ysangalang+JMeterUser693@gmail.com
CAT694,Koelpin-Abernathy,JMeterUser694,Axtest,ysangalang+JMeterUser694@gmail.com
CAT695,"Fay, Buckridge and Reynolds",JMeterUser695,Axtest,ysangalang+JMeterUser695@gmail.com
CAT696,Quigley and Sons,JMeterUser696,Axtest,ysangalang+JMeterUser696@gmail.com
CAT697,"Kihn, Reynolds and Durgan",JMeterUser697,Axtest,ysangalang+JMeterUser697@gmail.com
CAT698,Hackett and Sons,JMeterUser698,Axtest,ysangalang+JMeterUser698@gmail.com
CAT699,Weber LLC,JMeterUser699,Axtest,ysangalang+JMeterUser699@gmail.com
CAT700,Waelchi-Gibson,JMeterUser700,Axtest,ysangalang+JMeterUser700@gmail.com
CAT701,"Hansen, Dickens and Berge",JMeterUser701,Axtest,ysangalang+JMeterUser701@gmail.com
CAT702,Goyette-Spencer,JMeterUser702,Axtest,ysangalang+JMeterUser702@gmail.com
CAT703,Gusikowski-Bernier,JMeterUser703,Axtest,ysangalang+JMeterUser703@gmail.com
CAT704,Lynch Inc,JMeterUser704,Axtest,ysangalang+JMeterUser704@gmail.com
CAT705,"Keeling, Bashirian and Considine",JMeterUser705,Axtest,ysangalang+JMeterUser705@gmail.com
CAT706,Kiehn and Sons,JMeterUser706,Axtest,ysangalang+JMeterUser706@gmail.com
CAT707,"Fahey, Wyman and Mills",JMeterUser707,Axtest,ysangalang+JMeterUser707@gmail.com
CAT708,Cummerata-Nicolas,JMeterUser708,Axtest,ysangalang+JMeterUser708@gmail.com
CAT709,Bayer-Parker,JMeterUser709,Axtest,ysangalang+JMeterUser709@gmail.com
CAT710,Quitzon-Farrell,JMeterUser710,Axtest,ysangalang+JMeterUser710@gmail.com
CAT711,"MacGyver, Nikolaus and Frami",JMeterUser711,Axtest,ysangalang+JMeterUser711@gmail.com
CAT712,Hamill and Sons,JMeterUser712,Axtest,ysangalang+JMeterUser712@gmail.com
CAT713,"Lynch, Hand and Hilll",JMeterUser713,Axtest,ysangalang+JMeterUser713@gmail.com
CAT714,"Dickinson, Kunze and Ziemann",JMeterUser714,Axtest,ysangalang+JMeterUser714@gmail.com
CAT715,Purdy Group,JMeterUser715,Axtest,ysangalang+JMeterUser715@gmail.com
CAT716,DuBuque-Koelpin,JMeterUser716,Axtest,ysangalang+JMeterUser716@gmail.com
CAT717,Roob LLC,JMeterUser717,Axtest,ysangalang+JMeterUser717@gmail.com
CAT718,Considine-Wintheiser,JMeterUser718,Axtest,ysangalang+JMeterUser718@gmail.com
CAT719,Schmitt-Waelchi,JMeterUser719,Axtest,ysangalang+JMeterUser719@gmail.com
CAT720,Medhurst Group,JMeterUser720,Axtest,ysangalang+JMeterUser720@gmail.com
CAT721,"Mohr, Schmidt and Walter",JMeterUser721,Axtest,ysangalang+JMeterUser721@gmail.com
CAT722,Cole-Carroll,JMeterUser722,Axtest,ysangalang+JMeterUser722@gmail.com
CAT723,O'Kon Group,JMeterUser723,Axtest,ysangalang+JMeterUser723@gmail.com
CAT724,Herman-Jones,JMeterUser724,Axtest,ysangalang+JMeterUser724@gmail.com
CAT725,Stark-Metz,JMeterUser725,Axtest,ysangalang+JMeterUser725@gmail.com
CAT726,Hartmann-Strosin,JMeterUser726,Axtest,ysangalang+JMeterUser726@gmail.com
CAT727,"Abbott, Collier and Mraz",JMeterUser727,Axtest,ysangalang+JMeterUser727@gmail.com
CAT728,Turcotte-DuBuque,JMeterUser728,Axtest,ysangalang+JMeterUser728@gmail.com
CAT729,"Jacobs, VonRueden and Hauck",JMeterUser729,Axtest,ysangalang+JMeterUser729@gmail.com
CAT730,"Lind, Schmeler and Brakus",JMeterUser730,Axtest,ysangalang+JMeterUser730@gmail.com
CAT731,"Robel, Veum and Jenkins",JMeterUser731,Axtest,ysangalang+JMeterUser731@gmail.com
CAT732,Casper and Sons,JMeterUser732,Axtest,ysangalang+JMeterUser732@gmail.com
CAT733,Gulgowski LLC,JMeterUser733,Axtest,ysangalang+JMeterUser733@gmail.com
CAT734,Baumbach Group,JMeterUser734,Axtest,ysangalang+JMeterUser734@gmail.com
CAT735,"Deckow, O'Keefe and Corwin",JMeterUser735,Axtest,ysangalang+JMeterUser735@gmail.com
CAT736,Kohler and Sons,JMeterUser736,Axtest,ysangalang+JMeterUser736@gmail.com
CAT737,Schinner LLC,JMeterUser737,Axtest,ysangalang+JMeterUser737@gmail.com
CAT738,Beahan LLC,JMeterUser738,Axtest,ysangalang+JMeterUser738@gmail.com
CAT739,Harris and Sons,JMeterUser739,Axtest,ysangalang+JMeterUser739@gmail.com
CAT740,"Treutel, Ward and Lang",JMeterUser740,Axtest,ysangalang+JMeterUser740@gmail.com
CAT741,McKenzie and Sons,JMeterUser741,Axtest,ysangalang+JMeterUser741@gmail.com
CAT742,Hoeger-Kutch,JMeterUser742,Axtest,ysangalang+JMeterUser742@gmail.com
CAT743,Hudson Group,JMeterUser743,Axtest,ysangalang+JMeterUser743@gmail.com
CAT744,"Morissette, Schoen and Daniel",JMeterUser744,Axtest,ysangalang+JMeterUser744@gmail.com
CAT745,"Connelly, Lowe and Leannon",JMeterUser745,Axtest,ysangalang+JMeterUser745@gmail.com
CAT746,"Schneider, Prosacco and Heaney",JMeterUser746,Axtest,ysangalang+JMeterUser746@gmail.com
CAT747,Bartoletti-Parisian,JMeterUser747,Axtest,ysangalang+JMeterUser747@gmail.com
CAT748,"Heaney, Pagac and Muller",JMeterUser748,Axtest,ysangalang+JMeterUser748@gmail.com
CAT749,Pagac and Sons,JMeterUser749,Axtest,ysangalang+JMeterUser749@gmail.com
CAT750,Kuvalis-Huel,JMeterUser750,Axtest,ysangalang+JMeterUser750@gmail.com
CAT751,"Bailey, Schmeler and Shields",JMeterUser751,Axtest,ysangalang+JMeterUser751@gmail.com
CAT752,Cassin-Schaden,JMeterUser752,Axtest,ysangalang+JMeterUser752@gmail.com
CAT753,Jones Group,JMeterUser753,Axtest,ysangalang+JMeterUser753@gmail.com
CAT754,Terry Inc,JMeterUser754,Axtest,ysangalang+JMeterUser754@gmail.com
CAT755,Macejkovic Group,JMeterUser755,Axtest,ysangalang+JMeterUser755@gmail.com
CAT756,Ernser-Harvey,JMeterUser756,Axtest,ysangalang+JMeterUser756@gmail.com
CAT757,"Rolfson, Marvin and Powlowski",JMeterUser757,Axtest,ysangalang+JMeterUser757@gmail.com
CAT758,Stracke LLC,JMeterUser758,Axtest,ysangalang+JMeterUser758@gmail.com
CAT759,Marquardt LLC,JMeterUser759,Axtest,ysangalang+JMeterUser759@gmail.com
CAT760,Leannon Inc,JMeterUser760,Axtest,ysangalang+JMeterUser760@gmail.com
CAT761,Weimann Group,JMeterUser761,Axtest,ysangalang+JMeterUser761@gmail.com
CAT762,Cruickshank Inc,JMeterUser762,Axtest,ysangalang+JMeterUser762@gmail.com
CAT763,Kerluke-Tromp,JMeterUser763,Axtest,ysangalang+JMeterUser763@gmail.com
CAT764,O'Connell LLC,JMeterUser764,Axtest,ysangalang+JMeterUser764@gmail.com
CAT765,Nikolaus and Sons,JMeterUser765,Axtest,ysangalang+JMeterUser765@gmail.com
CAT766,Conn Inc,JMeterUser766,Axtest,ysangalang+JMeterUser766@gmail.com
CAT767,"Nienow, Haley and Rempel",JMeterUser767,Axtest,ysangalang+JMeterUser767@gmail.com
CAT768,Cartwright LLC,JMeterUser768,Axtest,ysangalang+JMeterUser768@gmail.com
CAT769,Jacobson-Ebert,JMeterUser769,Axtest,ysangalang+JMeterUser769@gmail.com
CAT770,"Wolf, Ward and Davis",JMeterUser770,Axtest,ysangalang+JMeterUser770@gmail.com
CAT771,"Ferry, Koch and Kuhn",JMeterUser771,Axtest,ysangalang+JMeterUser771@gmail.com
CAT772,Metz-Brown,JMeterUser772,Axtest,ysangalang+JMeterUser772@gmail.com
CAT773,"Howe, Weimann and Heller",JMeterUser773,Axtest,ysangalang+JMeterUser773@gmail.com
CAT774,Wyman LLC,JMeterUser774,Axtest,ysangalang+JMeterUser774@gmail.com
CAT775,Lindgren Group,JMeterUser775,Axtest,ysangalang+JMeterUser775@gmail.com
CAT776,Witting-Ritchie,JMeterUser776,Axtest,ysangalang+JMeterUser776@gmail.com
CAT777,"Mayer, Skiles and Connelly",JMeterUser777,Axtest,ysangalang+JMeterUser777@gmail.com
CAT778,Bernier-Carroll,JMeterUser778,Axtest,ysangalang+JMeterUser778@gmail.com
CAT779,"Collier, Cremin and Roob",JMeterUser779,Axtest,ysangalang+JMeterUser779@gmail.com
CAT780,Wilkinson-Gerhold,JMeterUser780,Axtest,ysangalang+JMeterUser780@gmail.com
CAT781,Beer-Gutkowski,JMeterUser781,Axtest,ysangalang+JMeterUser781@gmail.com
CAT782,Morar-Rau,JMeterUser782,Axtest,ysangalang+JMeterUser782@gmail.com
CAT783,"Wunsch, Hudson and Schamberger",JMeterUser783,Axtest,ysangalang+JMeterUser783@gmail.com
CAT784,"Rohan, Schultz and Hand",JMeterUser784,Axtest,ysangalang+JMeterUser784@gmail.com
CAT785,Keeling-Ondricka,JMeterUser785,Axtest,ysangalang+JMeterUser785@gmail.com
CAT786,"Bartoletti, Berge and Boyer",JMeterUser786,Axtest,ysangalang+JMeterUser786@gmail.com
CAT787,Kutch Inc,JMeterUser787,Axtest,ysangalang+JMeterUser787@gmail.com
CAT788,"O'Connell, Johns and Klein",JMeterUser788,Axtest,ysangalang+JMeterUser788@gmail.com
CAT789,Bailey-Kreiger,JMeterUser789,Axtest,ysangalang+JMeterUser789@gmail.com
CAT790,"Boyer, Wehner and Buckridge",JMeterUser790,Axtest,ysangalang+JMeterUser790@gmail.com
CAT791,Ratke-Tromp,JMeterUser791,Axtest,ysangalang+JMeterUser791@gmail.com
CAT792,"Bartell, Hegmann and Funk",JMeterUser792,Axtest,ysangalang+JMeterUser792@gmail.com
CAT793,Quigley-Shanahan,JMeterUser793,Axtest,ysangalang+JMeterUser793@gmail.com
CAT794,"Skiles, Tremblay and Zieme",JMeterUser794,Axtest,ysangalang+JMeterUser794@gmail.com
CAT795,Kiehn Group,JMeterUser795,Axtest,ysangalang+JMeterUser795@gmail.com
CAT796,Heaney LLC,JMeterUser796,Axtest,ysangalang+JMeterUser796@gmail.com
CAT797,"Mann, Braun and Trantow",JMeterUser797,Axtest,ysangalang+JMeterUser797@gmail.com
CAT798,"VonRueden, Will and Hegmann",JMeterUser798,Axtest,ysangalang+JMeterUser798@gmail.com
CAT799,"Dietrich, Yost and Witting",JMeterUser799,Axtest,ysangalang+JMeterUser799@gmail.com
CAT800,Dooley-Hyatt,JMeterUser800,Axtest,ysangalang+JMeterUser800@gmail.com
CAT801,Franecki-Lakin,JMeterUser801,Axtest,ysangalang+JMeterUser801@gmail.com
CAT802,Hauck Group,JMeterUser802,Axtest,ysangalang+JMeterUser802@gmail.com
CAT803,Rohan Inc,JMeterUser803,Axtest,ysangalang+JMeterUser803@gmail.com
CAT804,"Walter, Swaniawski and Kozey",JMeterUser804,Axtest,ysangalang+JMeterUser804@gmail.com
CAT805,Hermiston-Borer,JMeterUser805,Axtest,ysangalang+JMeterUser805@gmail.com
CAT806,Sporer Inc,JMeterUser806,Axtest,ysangalang+JMeterUser806@gmail.com
CAT807,"Hermiston, Schmidt and Smith",JMeterUser807,Axtest,ysangalang+JMeterUser807@gmail.com
CAT808,Dietrich Inc,JMeterUser808,Axtest,ysangalang+JMeterUser808@gmail.com
CAT809,Lesch LLC,JMeterUser809,Axtest,ysangalang+JMeterUser809@gmail.com
CAT810,Schamberger-Haag,JMeterUser810,Axtest,ysangalang+JMeterUser810@gmail.com
CAT811,Schumm LLC,JMeterUser811,Axtest,ysangalang+JMeterUser811@gmail.com
CAT812,Shanahan Group,JMeterUser812,Axtest,ysangalang+JMeterUser812@gmail.com
CAT813,Donnelly-Keebler,JMeterUser813,Axtest,ysangalang+JMeterUser813@gmail.com
CAT814,Osinski-Howell,JMeterUser814,Axtest,ysangalang+JMeterUser814@gmail.com
CAT815,O'Reilly-Hettinger,JMeterUser815,Axtest,ysangalang+JMeterUser815@gmail.com
CAT816,Huel and Sons,JMeterUser816,Axtest,ysangalang+JMeterUser816@gmail.com
CAT817,Stamm and Sons,JMeterUser817,Axtest,ysangalang+JMeterUser817@gmail.com
CAT818,Grant and Sons,JMeterUser818,Axtest,ysangalang+JMeterUser818@gmail.com
CAT819,Reynolds Inc,JMeterUser819,Axtest,ysangalang+JMeterUser819@gmail.com
CAT820,"Spinka, Renner and Jakubowski",JMeterUser820,Axtest,ysangalang+JMeterUser820@gmail.com
CAT821,Volkman-Kuhic,JMeterUser821,Axtest,ysangalang+JMeterUser821@gmail.com
CAT822,Welch-Kertzmann,JMeterUser822,Axtest,ysangalang+JMeterUser822@gmail.com
CAT823,Lubowitz LLC,JMeterUser823,Axtest,ysangalang+JMeterUser823@gmail.com
CAT824,VonRueden-Cassin,JMeterUser824,Axtest,ysangalang+JMeterUser824@gmail.com
CAT825,"Wolf, Heidenreich and Sawayn",JMeterUser825,Axtest,ysangalang+JMeterUser825@gmail.com
CAT826,Wolff-Mills,JMeterUser826,Axtest,ysangalang+JMeterUser826@gmail.com
CAT827,"Jacobson, Ledner and Kuhic",JMeterUser827,Axtest,ysangalang+JMeterUser827@gmail.com
CAT828,Dare LLC,JMeterUser828,Axtest,ysangalang+JMeterUser828@gmail.com
CAT829,Heathcote and Sons,JMeterUser829,Axtest,ysangalang+JMeterUser829@gmail.com
CAT830,Murray-Ondricka,JMeterUser830,Axtest,ysangalang+JMeterUser830@gmail.com
CAT831,"Feeney, Dietrich and Hirthe",JMeterUser831,Axtest,ysangalang+JMeterUser831@gmail.com
CAT832,"Becker, Ortiz and Volkman",JMeterUser832,Axtest,ysangalang+JMeterUser832@gmail.com
CAT833,Shields-Boehm,JMeterUser833,Axtest,ysangalang+JMeterUser833@gmail.com
CAT834,"Schinner, Kshlerin and Schamberger",JMeterUser834,Axtest,ysangalang+JMeterUser834@gmail.com
CAT835,Stracke-Koepp,JMeterUser835,Axtest,ysangalang+JMeterUser835@gmail.com
CAT836,Roob Group,JMeterUser836,Axtest,ysangalang+JMeterUser836@gmail.com
CAT837,Tromp-Johnson,JMeterUser837,Axtest,ysangalang+JMeterUser837@gmail.com
CAT838,Kilback-Lesch,JMeterUser838,Axtest,ysangalang+JMeterUser838@gmail.com
CAT839,Toy Inc,JMeterUser839,Axtest,ysangalang+JMeterUser839@gmail.com
CAT840,"Auer, Glover and Weber",JMeterUser840,Axtest,ysangalang+JMeterUser840@gmail.com
CAT841,"Kreiger, Pacocha and Heller",JMeterUser841,Axtest,ysangalang+JMeterUser841@gmail.com
CAT842,Mitchell LLC,JMeterUser842,Axtest,ysangalang+JMeterUser842@gmail.com
CAT843,Beahan-Zieme,JMeterUser843,Axtest,ysangalang+JMeterUser843@gmail.com
CAT844,Gaylord-Hamill,JMeterUser844,Axtest,ysangalang+JMeterUser844@gmail.com
CAT845,Metz Group,JMeterUser845,Axtest,ysangalang+JMeterUser845@gmail.com
CAT846,Feeney-Jenkins,JMeterUser846,Axtest,ysangalang+JMeterUser846@gmail.com
CAT847,Dickens Group,JMeterUser847,Axtest,ysangalang+JMeterUser847@gmail.com
CAT848,Ullrich-Abshire,JMeterUser848,Axtest,ysangalang+JMeterUser848@gmail.com
CAT849,Fisher Group,JMeterUser849,Axtest,ysangalang+JMeterUser849@gmail.com
CAT850,"Koch, Stracke and Lang",JMeterUser850,Axtest,ysangalang+JMeterUser850@gmail.com
CAT851,Wyman and Sons,JMeterUser851,Axtest,ysangalang+JMeterUser851@gmail.com
CAT852,Spencer Group,JMeterUser852,Axtest,ysangalang+JMeterUser852@gmail.com
CAT853,Johnston-Schamberger,JMeterUser853,Axtest,ysangalang+JMeterUser853@gmail.com
CAT854,Bashirian Group,JMeterUser854,Axtest,ysangalang+JMeterUser854@gmail.com
CAT855,Howe-Watsica,JMeterUser855,Axtest,ysangalang+JMeterUser855@gmail.com
CAT856,Schmitt Inc,JMeterUser856,Axtest,ysangalang+JMeterUser856@gmail.com
CAT857,Volkman-Wintheiser,JMeterUser857,Axtest,ysangalang+JMeterUser857@gmail.com
CAT858,Veum-Harber,JMeterUser858,Axtest,ysangalang+JMeterUser858@gmail.com
CAT859,Cronin-Nader,JMeterUser859,Axtest,ysangalang+JMeterUser859@gmail.com
CAT860,Hegmann Inc,JMeterUser860,Axtest,ysangalang+JMeterUser860@gmail.com
CAT861,Weber-Torphy,JMeterUser861,Axtest,ysangalang+JMeterUser861@gmail.com
CAT862,Larkin LLC,JMeterUser862,Axtest,ysangalang+JMeterUser862@gmail.com
CAT863,Osinski-Barrows,JMeterUser863,Axtest,ysangalang+JMeterUser863@gmail.com
CAT864,Keebler Group,JMeterUser864,Axtest,ysangalang+JMeterUser864@gmail.com
CAT865,"Hackett, Tromp and Orn",JMeterUser865,Axtest,ysangalang+JMeterUser865@gmail.com
CAT866,"Connelly, Terry and Feeney",JMeterUser866,Axtest,ysangalang+JMeterUser866@gmail.com
CAT867,Emmerich-Ebert,JMeterUser867,Axtest,ysangalang+JMeterUser867@gmail.com
CAT868,Kunze-Douglas,JMeterUser868,Axtest,ysangalang+JMeterUser868@gmail.com
CAT869,"Konopelski, Bradtke and Bode",JMeterUser869,Axtest,ysangalang+JMeterUser869@gmail.com
CAT870,"Durgan, Weissnat and Parisian",JMeterUser870,Axtest,ysangalang+JMeterUser870@gmail.com
CAT871,Daugherty Group,JMeterUser871,Axtest,ysangalang+JMeterUser871@gmail.com
CAT872,"Paucek, Ruecker and Wehner",JMeterUser872,Axtest,ysangalang+JMeterUser872@gmail.com
CAT873,"Connelly, Stamm and Daugherty",JMeterUser873,Axtest,ysangalang+JMeterUser873@gmail.com
CAT874,"Kulas, Tremblay and Gerhold",JMeterUser874,Axtest,ysangalang+JMeterUser874@gmail.com
CAT875,Purdy LLC,JMeterUser875,Axtest,ysangalang+JMeterUser875@gmail.com
CAT876,Kling Inc,JMeterUser876,Axtest,ysangalang+JMeterUser876@gmail.com
CAT877,"Grady, Huel and Keeling",JMeterUser877,Axtest,ysangalang+JMeterUser877@gmail.com
CAT878,"Crist, Hagenes and Krajcik",JMeterUser878,Axtest,ysangalang+JMeterUser878@gmail.com
CAT879,"Goyette, Orn and Bernhard",JMeterUser879,Axtest,ysangalang+JMeterUser879@gmail.com
CAT880,Conn Group,JMeterUser880,Axtest,ysangalang+JMeterUser880@gmail.com
CAT881,Kshlerin-Gulgowski,JMeterUser881,Axtest,ysangalang+JMeterUser881@gmail.com
CAT882,Wiegand-Spencer,JMeterUser882,Axtest,ysangalang+JMeterUser882@gmail.com
CAT883,"Barton, Nolan and Grimes",JMeterUser883,Axtest,ysangalang+JMeterUser883@gmail.com
CAT884,Prosacco-Watsica,JMeterUser884,Axtest,ysangalang+JMeterUser884@gmail.com
CAT885,Greenfelder Inc,JMeterUser885,Axtest,ysangalang+JMeterUser885@gmail.com
CAT886,McGlynn-Conn,JMeterUser886,Axtest,ysangalang+JMeterUser886@gmail.com
CAT887,"Schmitt, Medhurst and Bogan",JMeterUser887,Axtest,ysangalang+JMeterUser887@gmail.com
CAT888,Hammes and Sons,JMeterUser888,Axtest,ysangalang+JMeterUser888@gmail.com
CAT889,"Olson, Strosin and McCullough",JMeterUser889,Axtest,ysangalang+JMeterUser889@gmail.com
CAT890,Cassin Inc,JMeterUser890,Axtest,ysangalang+JMeterUser890@gmail.com
CAT891,"Schuster, Abbott and Cormier",JMeterUser891,Axtest,ysangalang+JMeterUser891@gmail.com
CAT892,"Lynch, Kutch and Hoeger",JMeterUser892,Axtest,ysangalang+JMeterUser892@gmail.com
CAT893,"Bernhard, Bailey and Mills",JMeterUser893,Axtest,ysangalang+JMeterUser893@gmail.com
CAT894,Blick-Prohaska,JMeterUser894,Axtest,ysangalang+JMeterUser894@gmail.com
CAT895,Bergnaum and Sons,JMeterUser895,Axtest,ysangalang+JMeterUser895@gmail.com
CAT896,Maggio LLC,JMeterUser896,Axtest,ysangalang+JMeterUser896@gmail.com
CAT897,"Gorczany, Lesch and Ritchie",JMeterUser897,Axtest,ysangalang+JMeterUser897@gmail.com
CAT898,Terry Inc,JMeterUser898,Axtest,ysangalang+JMeterUser898@gmail.com
CAT899,Kautzer-Swift,JMeterUser899,Axtest,ysangalang+JMeterUser899@gmail.com
CAT900,Bahringer-Braun,JMeterUser900,Axtest,ysangalang+JMeterUser900@gmail.com
CAT901,"Parisian, Feest and Morar",JMeterUser901,Axtest,ysangalang+JMeterUser901@gmail.com
CAT902,Crist Group,JMeterUser902,Axtest,ysangalang+JMeterUser902@gmail.com
CAT903,"Parisian, Wisoky and Schumm",JMeterUser903,Axtest,ysangalang+JMeterUser903@gmail.com
CAT904,Jacobi-VonRueden,JMeterUser904,Axtest,ysangalang+JMeterUser904@gmail.com
CAT905,"McKenzie, Langosh and Jacobs",JMeterUser905,Axtest,ysangalang+JMeterUser905@gmail.com
CAT906,D'Amore LLC,JMeterUser906,Axtest,ysangalang+JMeterUser906@gmail.com
CAT907,Abshire LLC,JMeterUser907,Axtest,ysangalang+JMeterUser907@gmail.com
CAT908,Senger-Grant,JMeterUser908,Axtest,ysangalang+JMeterUser908@gmail.com
CAT909,Reynolds-Wolf,JMeterUser909,Axtest,ysangalang+JMeterUser909@gmail.com
CAT910,"Harber, Glover and Howell",JMeterUser910,Axtest,ysangalang+JMeterUser910@gmail.com
CAT911,White-O'Kon,JMeterUser911,Axtest,ysangalang+JMeterUser911@gmail.com
CAT912,Kemmer Group,JMeterUser912,Axtest,ysangalang+JMeterUser912@gmail.com
CAT913,"Mayert, Fisher and Murray",JMeterUser913,Axtest,ysangalang+JMeterUser913@gmail.com
CAT914,Blick Inc,JMeterUser914,Axtest,ysangalang+JMeterUser914@gmail.com
CAT915,Koelpin Group,JMeterUser915,Axtest,ysangalang+JMeterUser915@gmail.com
CAT916,"Howe, Block and West",JMeterUser916,Axtest,ysangalang+JMeterUser916@gmail.com
CAT917,"Moen, Howe and Langosh",JMeterUser917,Axtest,ysangalang+JMeterUser917@gmail.com
CAT918,Hagenes LLC,JMeterUser918,Axtest,ysangalang+JMeterUser918@gmail.com
CAT919,Kovacek-Kautzer,JMeterUser919,Axtest,ysangalang+JMeterUser919@gmail.com
CAT920,Tremblay Group,JMeterUser920,Axtest,ysangalang+JMeterUser920@gmail.com
CAT921,McDermott Group,JMeterUser921,Axtest,ysangalang+JMeterUser921@gmail.com
CAT922,Lowe Group,JMeterUser922,Axtest,ysangalang+JMeterUser922@gmail.com
CAT923,"Hyatt, Lubowitz and Satterfield",JMeterUser923,Axtest,ysangalang+JMeterUser923@gmail.com
CAT924,Bayer LLC,JMeterUser924,Axtest,ysangalang+JMeterUser924@gmail.com
CAT925,Dietrich-Batz,JMeterUser925,Axtest,ysangalang+JMeterUser925@gmail.com
CAT926,"Luettgen, Kunde and Labadie",JMeterUser926,Axtest,ysangalang+JMeterUser926@gmail.com
CAT927,Koepp LLC,JMeterUser927,Axtest,ysangalang+JMeterUser927@gmail.com
CAT928,Grant-Brakus,JMeterUser928,Axtest,ysangalang+JMeterUser928@gmail.com
CAT929,"Roberts, Smith and Volkman",JMeterUser929,Axtest,ysangalang+JMeterUser929@gmail.com
CAT930,"Koelpin, Ullrich and Abbott",JMeterUser930,Axtest,ysangalang+JMeterUser930@gmail.com
CAT931,Corkery-Cruickshank,JMeterUser931,Axtest,ysangalang+JMeterUser931@gmail.com
CAT932,Cartwright-Goldner,JMeterUser932,Axtest,ysangalang+JMeterUser932@gmail.com
CAT933,"DuBuque, Heller and Dickens",JMeterUser933,Axtest,ysangalang+JMeterUser933@gmail.com
CAT934,"Breitenberg, McGlynn and Crooks",JMeterUser934,Axtest,ysangalang+JMeterUser934@gmail.com
CAT935,"Rolfson, Morissette and Klocko",JMeterUser935,Axtest,ysangalang+JMeterUser935@gmail.com
CAT936,Fisher Group,JMeterUser936,Axtest,ysangalang+JMeterUser936@gmail.com
CAT937,Ebert and Sons,JMeterUser937,Axtest,ysangalang+JMeterUser937@gmail.com
CAT938,Terry-Buckridge,JMeterUser938,Axtest,ysangalang+JMeterUser938@gmail.com
CAT939,"Hamill, Hoppe and Gusikowski",JMeterUser939,Axtest,ysangalang+JMeterUser939@gmail.com
CAT940,Schmeler and Sons,JMeterUser940,Axtest,ysangalang+JMeterUser940@gmail.com
CAT941,Donnelly Inc,JMeterUser941,Axtest,ysangalang+JMeterUser941@gmail.com
CAT942,Jakubowski-Tremblay,JMeterUser942,Axtest,ysangalang+JMeterUser942@gmail.com
CAT943,"Kozey, Osinski and Ankunding",JMeterUser943,Axtest,ysangalang+JMeterUser943@gmail.com
CAT944,"Bradtke, Moore and Dare",JMeterUser944,Axtest,ysangalang+JMeterUser944@gmail.com
CAT945,"DuBuque, O'Connell and Funk",JMeterUser945,Axtest,ysangalang+JMeterUser945@gmail.com
CAT946,Ratke-Nader,JMeterUser946,Axtest,ysangalang+JMeterUser946@gmail.com
CAT947,"Runte, Purdy and Mertz",JMeterUser947,Axtest,ysangalang+JMeterUser947@gmail.com
CAT948,"Kovacek, Leffler and Predovic",JMeterUser948,Axtest,ysangalang+JMeterUser948@gmail.com
CAT949,"Franecki, Heaney and Olson",JMeterUser949,Axtest,ysangalang+JMeterUser949@gmail.com
CAT950,Kihn LLC,JMeterUser950,Axtest,ysangalang+JMeterUser950@gmail.com
CAT951,Bahringer Inc,JMeterUser951,Axtest,ysangalang+JMeterUser951@gmail.com
CAT952,"Sanford, Cormier and Ward",JMeterUser952,Axtest,ysangalang+JMeterUser952@gmail.com
CAT953,"Armstrong, Davis and Armstrong",JMeterUser953,Axtest,ysangalang+JMeterUser953@gmail.com
CAT954,O'Kon Inc,JMeterUser954,Axtest,ysangalang+JMeterUser954@gmail.com
CAT955,Corkery-Schroeder,JMeterUser955,Axtest,ysangalang+JMeterUser955@gmail.com
CAT956,"Haley, Hermann and Torphy",JMeterUser956,Axtest,ysangalang+JMeterUser956@gmail.com
CAT957,Blick Inc,JMeterUser957,Axtest,ysangalang+JMeterUser957@gmail.com
CAT958,Larkin-Corkery,JMeterUser958,Axtest,ysangalang+JMeterUser958@gmail.com
CAT959,Roob-Trantow,JMeterUser959,Axtest,ysangalang+JMeterUser959@gmail.com
CAT960,"O'Connell, Paucek and Johnson",JMeterUser960,Axtest,ysangalang+JMeterUser960@gmail.com
CAT961,"Stoltenberg, Tremblay and Bailey",JMeterUser961,Axtest,ysangalang+JMeterUser961@gmail.com
CAT962,Turcotte Group,JMeterUser962,Axtest,ysangalang+JMeterUser962@gmail.com
CAT963,"Wiegand, Orn and Weissnat",JMeterUser963,Axtest,ysangalang+JMeterUser963@gmail.com
CAT964,"Mayert, Larkin and Feeney",JMeterUser964,Axtest,ysangalang+JMeterUser964@gmail.com
CAT965,VonRueden Inc,JMeterUser965,Axtest,ysangalang+JMeterUser965@gmail.com
CAT966,Gusikowski-Zboncak,JMeterUser966,Axtest,ysangalang+JMeterUser966@gmail.com
CAT967,Smitham-Donnelly,JMeterUser967,Axtest,ysangalang+JMeterUser967@gmail.com
CAT968,Becker-Schmitt,JMeterUser968,Axtest,ysangalang+JMeterUser968@gmail.com
CAT969,Olson and Sons,JMeterUser969,Axtest,ysangalang+JMeterUser969@gmail.com
CAT970,Smith-Hegmann,JMeterUser970,Axtest,ysangalang+JMeterUser970@gmail.com
CAT971,"Wuckert, Sanford and Rohan",JMeterUser971,Axtest,ysangalang+JMeterUser971@gmail.com
CAT972,Ratke-Oberbrunner,JMeterUser972,Axtest,ysangalang+JMeterUser972@gmail.com
CAT973,Smith LLC,JMeterUser973,Axtest,ysangalang+JMeterUser973@gmail.com
CAT974,"Williamson, Heaney and Mante",JMeterUser974,Axtest,ysangalang+JMeterUser974@gmail.com
CAT975,Leuschke-Wisozk,JMeterUser975,Axtest,ysangalang+JMeterUser975@gmail.com
CAT976,McKenzie Inc,JMeterUser976,Axtest,ysangalang+JMeterUser976@gmail.com
CAT977,Schulist LLC,JMeterUser977,Axtest,ysangalang+JMeterUser977@gmail.com
CAT978,Schmitt-Hoeger,JMeterUser978,Axtest,ysangalang+JMeterUser978@gmail.com
CAT979,Lindgren and Sons,JMeterUser979,Axtest,ysangalang+JMeterUser979@gmail.com
CAT980,"Kassulke, Lindgren and Abshire",JMeterUser980,Axtest,ysangalang+JMeterUser980@gmail.com
CAT981,Goyette-O'Conner,JMeterUser981,Axtest,ysangalang+JMeterUser981@gmail.com
CAT982,"Russel, Braun and Rogahn",JMeterUser982,Axtest,ysangalang+JMeterUser982@gmail.com
CAT983,Borer Group,JMeterUser983,Axtest,ysangalang+JMeterUser983@gmail.com
CAT984,"Marvin, Fisher and Hermann",JMeterUser984,Axtest,ysangalang+JMeterUser984@gmail.com
CAT985,Murray-Bergstrom,JMeterUser985,Axtest,ysangalang+JMeterUser985@gmail.com
CAT986,"Goyette, Gislason and Schumm",JMeterUser986,Axtest,ysangalang+JMeterUser986@gmail.com
CAT987,"Ullrich, Buckridge and Mayer",JMeterUser987,Axtest,ysangalang+JMeterUser987@gmail.com
CAT988,Kris-Mante,JMeterUser988,Axtest,ysangalang+JMeterUser988@gmail.com
CAT989,Jerde Inc,JMeterUser989,Axtest,ysangalang+JMeterUser989@gmail.com
CAT990,"Vandervort, Kunze and Langworth",JMeterUser990,Axtest,ysangalang+JMeterUser990@gmail.com
CAT991,Bernhard-Williamson,JMeterUser991,Axtest,ysangalang+JMeterUser991@gmail.com
CAT992,"Bashirian, Krajcik and Langworth",JMeterUser992,Axtest,ysangalang+JMeterUser992@gmail.com
CAT993,"Boyer, Beahan and Towne",JMeterUser993,Axtest,ysangalang+JMeterUser993@gmail.com
CAT994,Wuckert Group,JMeterUser994,Axtest,ysangalang+JMeterUser994@gmail.com
CAT995,"Flatley, Vandervort and Tillman",JMeterUser995,Axtest,ysangalang+JMeterUser995@gmail.com
CAT996,Medhurst-Gaylord,JMeterUser996,Axtest,ysangalang+JMeterUser996@gmail.com
CAT997,Wiza LLC,JMeterUser997,Axtest,ysangalang+JMeterUser997@gmail.com
CAT998,Hoeger Group,JMeterUser998,Axtest,ysangalang+JMeterUser998@gmail.com
CAT999,Wolf and Sons,JMeterUser999,Axtest,ysangalang+JMeterUser999@gmail.com
CAT1000,"Lueilwitz, Parisian and Beatty",JMeterUser1000,Axtest,ysangalang+JMeterUser1000@gmail.com
